{
	"format_version": "1.8.0",
	"animations": {
		"animation.inteleon.ground_idle": {
			"loop": true,
			"bones": {
				"torso": {
					"rotation": [7.5, 0, 0]
				},
				"waist": {
					"rotation": [-7.5, 0, 0]
				},
				"chest": {
					"rotation": [-7.5, 0, 0]
				},
				"arm_left": {
					"rotation": [76.99119, -14.90582, 21.64461]
				},
				"arm_left2": {
					"rotation": [24.13186, 84.72537, 14.27369]
				},
				"hand_left": {
					"rotation": [23.45341, 41.77745, -37.21837]
				},
				"finger1_left": {
					"rotation": [0, 0, 27.5]
				},
				"finger1_left2": {
					"rotation": [0, 0, 45]
				},
				"finger2_left": {
					"rotation": [-2.46207, 0.43399, -40.00933]
				},
				"finger2_left2": {
					"rotation": [0, 0, 42.5]
				},
				"thumb_left": {
					"rotation": [-5.34655, 75.4621, -17.09529]
				},
				"thumb_left2": {
					"rotation": [0, -20, 0]
				},
				"neck": {
					"rotation": [2.5, 0, 0]
				},
				"head": {
					"rotation": [10, 0, 0]
				},
				"foot_left": {
					"rotation": [0, -15, 0]
				},
				"leg_right": {
					"rotation": [-12.54624, 4.88119, -1.08482]
				},
				"leg_right2": {
					"rotation": [27.5, 0, 0]
				},
				"foot_right": {
					"rotation": [12.5, 0, 0]
				},
				"toes_right": {
					"rotation": [-27.5, 0, 0]
				},
				"arm_right": {
					"rotation": [-1.5741, 17.43127, -70.24133]
				},
				"arm_right2": {
					"rotation": [8.13936, -23.93162, -16.38468]
				},
				"hand_right": {
					"rotation": [0, -10, 2.5]
				},
				"fingers_right": {
					"rotation": [0, 0, 0]
				},
				"finger1_right": {
					"rotation": [0, 0, -7.5]
				},
				"finger1_right2": {
					"rotation": [0, 0, -15]
				},
				"finger2_right": {
					"rotation": [0, 0, -20]
				},
				"finger2_right2": {
					"rotation": [0, 0, -32.5]
				},
				"thumb_right": {
					"rotation": [-10.30798, -33.32262, -20.16889]
				},
				"thumb_right2": {
					"rotation": [0, 32.5, 0]
				},
				"tail": {
					"rotation": [-20, 0, 0]
				},
				"tail2": {
					"rotation": [-15.09907, 4.21541, -2.69136]
				},
				"tail3": {
					"rotation": [-7.5, 0, 0]
				},
				"tail4": {
					"rotation": [6.61047, 1.97573, -2.8314]
				},
				"tail5": {
					"rotation": [20, 0, 0]
				},
				"tail6": {
					"rotation": [50, 0, 0]
				},
				"tail7": {
					"rotation": [42.5, 0, 0]
				},
				"tail8": {
					"rotation": [30.21362, -6.49053, -3.76613]
				},
				"tail9": {
					"rotation": [30.59871, 10.80355, 6.32526]
				},
				"tail10": {
					"rotation": [5.12076, 12.45167, 1.10693]
				},
				"tail11": {
					"rotation": [-12.5, 0, 0]
				},
				"tail12": {
					"rotation": [-52.5, 0, 0]
				},
				"tail13": {
					"rotation": [-67.5, 0, 0]
				},
				"tail_fin": {
					"position": [0, -2, 0]
				},
				"tail_fin2": {
					"position": [0, -2, 0]
				},
				"tail_fin3": {
					"position": [0, -2, 0]
				},
				"tail_fin4": {
					"position": [0, -2, 0]
				},
				"tail_fin5": {
					"position": [0, -2, 0]
				},
				"tail_fin6": {
					"position": [0, -2, 0]
				},
				"tail_fin7": {
					"position": [0, -2, 0]
				},
				"tail_fin8": {
					"position": [0, -1, 0]
				},
				"tail_fin9": {
					"position": [0, -1, 0]
				},
				"cape_left": {
					"rotation": [2.5, 0, 0]
				},
				"cape_left2": {
					"rotation": [2.5, 0, 0]
				},
				"cape_left3": {
					"rotation": [-4.95744, -0.65182, -7.47178]
				},
				"cape_left4": {
					"rotation": [-4.98107, -0.43523, -4.98107]
				},
				"cape_right": {
					"rotation": [5, 0, 0]
				},
				"cape_right2": {
					"rotation": [-2.5, 0, 0]
				},
				"cape_right3": {
					"rotation": [-4.98107, 0.43523, 4.98107]
				},
				"cape_right4": {
					"rotation": [-7.47178, 0.65182, 4.95744]
				},
				"jaw": {
					"rotation": [0, 0, 0]
				}
			}
		},
		"animation.inteleon.blink": {
			"animation_length": 0.16667,
			"bones": {
				"eyelid_inner_left": {
					"position": {
						"0.0": [0.1, 0, 0],
						"0.125": [0.1, 0, 0],
						"0.1667": [0, 0, 0]
					}
				},
				"eyelid_inner_right": {
					"position": {
						"0.0": [-0.1, 0, 0],
						"0.125": [-0.1, 0, 0],
						"0.1667": [0, 0, 0]
					}
				}
			}
		}
	}
}