{
	"format_version": "1.8.0",
	"animations": {
		"animation.alcremie.ground_idle": {
			"loop": true,
			"bones": {
				"torso_top": {
					"rotation": ["Math.cos((query.anim_time-0.3) * 90 * 2) * -2", 0, 0],
					"position": [0, "Math.cos((query.anim_time) * 90 * 2) * 0.3", 0]
				},
				"head": {
					"rotation": [0, 0, "Math.cos((query.anim_time-0.6) * 90 * 1) * -4"],
					"position": [0, "-0.1+Math.cos((query.anim_time-0.1) * 90 * 2) * 0.2", 0]
				},
				"mouth_open": {
					"position": [0, 0, 0.1]
				},
				"head_top": {
					"rotation": [0, 0, "Math.cos((query.anim_time-0.8) * 90 * 1) * 4"],
					"position": [0, "Math.cos((query.anim_time-0.1) * 90 * 2) * 0.3", 0]
				},
				"head_top2": {
					"rotation": [0, 0, "Math.cos((query.anim_time-1) * 90 * 1) * 4"]
				},
				"head_top3": {
					"rotation": [0, 0, "Math.cos((query.anim_time-1.2) * 90 * 1) * 4"],
					"position": [0, "Math.cos((query.anim_time) * 90 * 2) * 0.2", 0]
				},
				"head_top4": {
					"rotation": [0, 0, "Math.cos((query.anim_time-1.4) * 90 * 1) * 4"]
				},
				"hair_right": {
					"rotation": [0, 0, "-(Math.cos((query.anim_time) * 90 * 2) * 4)"]
				},
				"hair_left": {
					"rotation": [0, 0, "Math.cos((query.anim_time) * 90 * 2) * 4"]
				},
				"arm_right": {
					"rotation": [42.5, 0, "-50+Math.cos((query.anim_time+0.2) * 90 * 2) * -4"]
				},
				"arm_right2": {
					"rotation": [0, 0, -20]
				},
				"arm_left": {
					"rotation": [42.5, 0, "50+Math.cos((query.anim_time+0.2) * 90 * 2) * 4"]
				},
				"arm_left2": {
					"rotation": [0, 0, 17.5]
				}
			}
		},
		"animation.alcremie.ground_walk": {
			"loop": true,
			"bones": {
				"body": {
					"position": [0, 0, "-2+Math.cos((query.anim_time) * 90 * 4) * 1"]
				},
				"torso_top": {
					"rotation": ["12.5+Math.cos((query.anim_time-0.2) * 90 * 4) * 4", 0, 0],
					"position": [0, "Math.cos((query.anim_time-0.1) * 90 * 4) * 0.2", 0]
				},
				"head": {
					"rotation": ["-7.5+Math.cos((query.anim_time-0.6) * 90 * 4) * 5", "0+Math.cos((query.anim_time-0.1) * 90 * 2) * 3", 0],
					"position": [0, "-0.2+Math.cos((query.anim_time-0.3) * 90 * 4) * 0.1", 0]
				},
				"mouth_open": {
					"position": [0, 0, 0.1]
				},
				"head_top": {
					"rotation": ["Math.cos((query.anim_time-0.7) * 90 * 4) * 3", 0, "Math.cos((query.anim_time-0.4) * 90 * 2) * 3"]
				},
				"head_top2": {
					"rotation": ["Math.cos((query.anim_time-0.8) * 90 * 4) * 3", 0, "Math.cos((query.anim_time-0.5) * 90 * 2) * 3"]
				},
				"head_top3": {
					"rotation": ["Math.cos((query.anim_time-0.9) * 90 * 4) * 3", 0, "Math.cos((query.anim_time-0.6) * 90 * 2) * 3"]
				},
				"head_top4": {
					"rotation": ["Math.cos((query.anim_time-1) * 90 * 4) * 3", 0, "Math.cos((query.anim_time-0.7) * 90 * 2) * 3"]
				},
				"hair_right": {
					"rotation": [0, 0, "-(Math.cos((query.anim_time-0.7) * 90 * 4) * 3)"]
				},
				"hair_left": {
					"rotation": [0, 0, "Math.cos((query.anim_time-0.7) * 90 * 4) * 3"]
				},
				"arm_right": {
					"rotation": [0.30554, "50.0401+Math.cos((query.anim_time-0.2) * 90 * 4) * 20", -15.00304]
				},
				"arm_right2": {
					"rotation": [0, "-12.5+Math.cos((query.anim_time-0.4) * 90 * 4) * 10", 0]
				},
				"arm_left": {
					"rotation": [0.30554, "-50.0401+Math.cos((query.anim_time-0.2) * 90 * 4) * 20", 15.00304]
				},
				"arm_left2": {
					"rotation": [0, "12.5+Math.cos((query.anim_time-0.4) * 90 * 4) * 10", 0]
				},
				"torso_bottom": {
					"position": [0, 0, "Math.cos((query.anim_time-0.1) * 90 * 4) * 0.2"]
				},
				"torso_right": {
					"position": [0, 0, "-0.2+Math.cos((query.anim_time-0.3) * 90 * 4) * 0.3"]
				},
				"torso_bottom_front": {
					"position": [0, 0, "0.4+Math.cos((query.anim_time) * 90 * 4) * 0.3"]
				},
				"torso_left": {
					"position": [0, 0, "-0.2+Math.cos((query.anim_time-0.2) * 90 * 4) * 0.3"]
				},
				"torso_bottom_back": {
					"position": [0, 0, "-0.2+Math.cos((query.anim_time-0.4) * 90 * 4) * 0.3"]
				}
			}
		},
		"animation.alcremie.faint": {
			"loop": true,
			"animation_length": 3,
			"bones": {
				"body": {
					"position": {
						"0.0": [0, 0, 0],
						"0.5833": [0, 0, 0.7],
						"1.125": [0, 0, 1.06],
						"1.7083": [0, 0, 1.15]
					}
				},
				"torso_top": {
					"rotation": {
						"0.0": [17, -10, 0],
						"0.125": [17, 5, 0],
						"0.25": [14, 10, 0],
						"0.375": [7.25, -5, 0],
						"0.5": [3.75, -10, 0],
						"0.625": [1.75, 5, 0],
						"0.75": [0.5, 10, 0],
						"0.875": [0.25, -5, 0],
						"1.0": [0, -10, 0],
						"1.125": [0, 5, 0],
						"1.25": [0, 10, 0],
						"1.3333": [-3, 3, 0],
						"1.5": [-5, 0, 0],
						"1.625": [-1, 0, 0],
						"1.8333": [15.5, 0, 0],
						"2.0": [37.5, 0, 0],
						"2.1667": [52.5, 0, 0],
						"2.25": [57.5, 0, 0],
						"2.3333": [56.5, 0, 0],
						"2.4583": [53, 0, 0],
						"2.5833": [48, 0, 0],
						"2.7083": [45, 0, 0]
					},
					"position": {
						"1.375": [0, 0, 0],
						"1.5": [0, 0.375, 0],
						"1.625": [0, 0.5, 0],
						"1.875": [0, 0.475, 0],
						"2.25": [0, 0, 0],
						"2.3333": [0, -0.48, 0],
						"2.4167": [0, -0.65, 0],
						"2.5": [0, -0.45, 0],
						"2.625": [0, 0, 0]
					}
				},
				"head": {
					"rotation": {
						"0.0833": [7, -10, 0],
						"0.2083": [7, 5, 0],
						"0.3333": [7, 10, 0],
						"0.4583": [5, -5, 0],
						"0.5833": [2, -10, 0],
						"0.7083": [1, 5, 0],
						"0.8333": [0.25, 10, 0],
						"0.9583": [0, -5, 0],
						"1.0833": [0, -10, 0],
						"1.2083": [0, 5, 0],
						"1.3333": [-1, 10, 0],
						"1.4167": [-4, 3, 0],
						"1.5833": [-9, 0, 0],
						"1.75": [-16.5, 0, 0],
						"2.0": [-21.5, 0, 0],
						"2.0833": [-7.5, 0, 0],
						"2.2083": [7, 0, 0],
						"2.3333": [14.5, 0, 0],
						"2.4167": [11, 0, 0],
						"2.5417": [8.5, 0, 0],
						"2.7917": [5, 0, 0]
					},
					"position": {
						"1.25": [0, 0, 0],
						"1.75": [0, -1, 0]
					}
				},
				"eyelid_right": {
					"position": {
						"0.0": [0, 0, -0.1],
						"1.25": [0, 0, -0.1],
						"1.2917": [0, 0, 0],
						"2.0": [0, 0, 0],
						"2.0417": [0, 0, -0.1]
					}
				},
				"eyelid_left": {
					"position": {
						"0.0": [0, 0, -0.1],
						"1.25": [0, 0, -0.1],
						"1.2917": [0, 0, 0.1],
						"2.0": [0, 0, 0.1],
						"2.0417": [0, 0, -0.1]
					}
				},
				"mouth_open": {
					"position": {
						"0.0": [0, 0, 0],
						"1.875": [0, 0, 0],
						"1.9167": [0, 0, 0.25]
					}
				},
				"head_front": {
					"rotation": {
						"2.0417": [0, 0, 0],
						"2.3333": [-45, 0, 0],
						"2.4167": [-25, 0, 0],
						"2.6667": [-45, 0, 0]
					}
				},
				"head_top": {
					"rotation": {
						"0.0": [0, 0, -1],
						"0.0833": [0, 0, 6.43],
						"0.2083": [0, 0, 10],
						"0.3333": [0, 0, -6.57],
						"0.4583": [0, 0, -10],
						"0.625": [0, 0, 6.43],
						"0.75": [0, 0, 10],
						"0.875": [0, 0, -6.57],
						"1.0": [0, 0, -10],
						"1.1667": [0, 0, 6.43],
						"1.2917": [0, 0, 10],
						"1.4583": [0, 0, -3.57],
						"1.6667": [0, 0, -8],
						"1.875": [-4, 0, -10],
						"2.0417": [-13, 0, -10],
						"2.2083": [-30, 0, -10],
						"2.2917": [-23.25, 0, -10],
						"2.375": [5, 0, -10],
						"2.4583": [12.5, 0, -10],
						"2.5833": [11.5, 0, -10],
						"2.7917": [4, 0, -10]
					}
				},
				"head_top2": {
					"rotation": {
						"1.5833": [0, 0, 0],
						"1.8333": [-3.18, 0, 0],
						"2.0417": [-15, 0, 0],
						"2.2083": [-11.94, 0, 0],
						"2.375": [2.5, 0, 0],
						"2.5": [7.5, 0, 0],
						"2.6667": [5, 0, 0]
					}
				},
				"head_top3": {
					"rotation": {
						"1.6667": [0, 0, 0],
						"2.0": [-6.5, 0, 0],
						"2.2083": [-22.5, 0, 0],
						"2.2917": [-17.5, 0, 0],
						"2.4167": [5, 0, 0],
						"2.5417": [12.5, 0, 0],
						"2.75": [7.5, 0, 0]
					}
				},
				"hair_right": {
					"rotation": {
						"0.0": [-17.5, 0, 0],
						"0.125": [-9.25, 0, 0],
						"0.25": [14, 0, 0],
						"0.375": [8.25, 0, 0],
						"0.5": [-17.5, 0, 0],
						"0.625": [-9.25, 0, 0],
						"0.75": [14, 0, 0],
						"0.875": [8.25, 0, 0],
						"1.0": [-17.5, 0, 0],
						"1.125": [-9.25, 0, 0],
						"1.25": [14, 0, 0],
						"1.375": [8.25, 0, 0],
						"1.5": [-0.5, 0, 0],
						"1.625": [-1.25, 0, 0],
						"2.0417": [30.75, 0, 0],
						"2.2083": [43.25, 0, 0],
						"2.3333": [18.75, 0, 0],
						"2.4167": [-3.75, 0, 0],
						"2.5": [-26.25, 0, 0],
						"2.6667": [-37.25, 0, 0],
						"3.0": [-42.25, 0, 0]
					}
				},
				"hair_left": {
					"rotation": {
						"0.0": [17.5, 0, 0],
						"0.125": [9.25, 0, 0],
						"0.25": [-14, 0, 0],
						"0.375": [-8.25, 0, 0],
						"0.5": [17.5, 0, 0],
						"0.625": [9.25, 0, 0],
						"0.75": [-14, 0, 0],
						"0.875": [-8.25, 0, 0],
						"1.0": [17.5, 0, 0],
						"1.125": [9.25, 0, 0],
						"1.25": [-14, 0, 0],
						"1.375": [-8.25, 0, 0],
						"1.5": [0.5, 0, 0],
						"1.625": [1.25, 0, 0],
						"2.0": [30.75, 0, 0],
						"2.1667": [43.25, 0, 0],
						"2.2917": [18.75, 0, 0],
						"2.375": [-3.75, 0, 0],
						"2.4583": [-26.25, 0, 0],
						"2.6667": [-37.25, 0, 0],
						"3.0": [-42.25, 0, 0]
					}
				},
				"arm_right": {
					"rotation": {
						"0.0": [0, 0, -45],
						"0.125": [0, 0, 10],
						"0.25": [0, 0, 30],
						"0.375": [0, 0, -32.5],
						"0.5": [0, 0, -45],
						"0.625": [0, 0, 10],
						"0.75": [0, 0, 30],
						"0.875": [0, 0, -32.5],
						"1.0": [0, 0, -45],
						"1.125": [0, 0, 10],
						"1.25": [0, 0, 30],
						"1.375": [0, 0, 30.71],
						"1.5833": [0, 0, 22.5],
						"1.75": [0, 25.80246, 49.21743],
						"2.0": [0, 14.62296, 53.75061],
						"2.1667": [0.62582, -10.31982, 47.97153],
						"2.3333": [25.63451, -12.33505, 7.56863],
						"2.4167": [35.05239, -8.52931, -3.84995],
						"2.7083": [46.19562, -0.33344, -19.44858]
					}
				},
				"arm_right2": {
					"rotation": {
						"0.0417": [0, 0, -45],
						"0.1667": [0, 0, 10],
						"0.2917": [0, 0, 30],
						"0.4167": [0, 0, -32.5],
						"0.5417": [0, 0, -45],
						"0.6667": [0, 0, 10],
						"0.7917": [0, 0, 30],
						"0.9167": [0, 0, -32.5],
						"1.0417": [0, 0, -45],
						"1.1667": [0, 0, 10],
						"1.2917": [0, 0, 30],
						"1.4167": [0, 0, 10.71],
						"1.625": [0, 0, -1.5]
					}
				},
				"arm_left": {
					"rotation": {
						"0.0": [0, 0, -45],
						"0.125": [0, 0, 10],
						"0.25": [0, 0, 30],
						"0.375": [0, 0, -32.5],
						"0.5": [0, 0, -45],
						"0.625": [0, 0, 10],
						"0.75": [0, 0, 30],
						"0.875": [0, 0, -32.5],
						"1.0": [0, 0, -45],
						"1.125": [0, 0, 10],
						"1.25": [0, 0, 30],
						"1.375": [0, -3, 10.71],
						"1.5417": [0, -7, -32.5],
						"1.75": [0, -25.80246, -49.21743],
						"2.0": [0, -14.62296, -53.75061],
						"2.1667": [0.62582, 10.31982, -47.97153],
						"2.3333": [25.63451, 12.33505, -7.56863],
						"2.4167": [35.05239, 8.52931, 3.84995],
						"2.7083": [46.19562, 0.33344, 19.44858]
					}
				},
				"arm_left2": {
					"rotation": {
						"0.0417": [0, 0, -45],
						"0.1667": [0, 0, 10],
						"0.2917": [0, 0, 30],
						"0.4167": [0, 0, -32.5],
						"0.5417": [0, 0, -45],
						"0.6667": [0, 0, 10],
						"0.7917": [0, 0, 30],
						"0.9167": [0, 0, -32.5],
						"1.0417": [0, 0, -45],
						"1.1667": [0, 0, 10],
						"1.2917": [0, 0, 30],
						"1.4167": [0, 0, 10.71],
						"1.625": [0, 0, -1.5]
					}
				},
				"torso_right": {
					"position": {
						"0.0": [0, 0, 0.75],
						"0.5417": [0, 0, 0.275],
						"1.125": [0, 0, 0.135],
						"1.9167": [0, 0, 0.5]
					}
				},
				"torso_bottom_front": {
					"position": {
						"0.0": [0, 0, 0.75],
						"0.4583": [0, 0, 0.275],
						"0.875": [0, 0, 0.085],
						"1.4583": [0, 0, 0.25],
						"2.2917": [0, 0, 0.5]
					}
				},
				"torso_left": {
					"position": {
						"0.0": [0, 0, 0.75],
						"0.5417": [0, 0, 0.275],
						"1.125": [0, 0, 0.135],
						"1.9167": [0, 0, 0.5]
					}
				},
				"torso_bottom_back": {
					"position": {
						"0.0": [0, 0, -0.45],
						"0.375": [0, 0, -0.55],
						"0.75": [0, 0, -0.525],
						"1.375": [0, 0, -0.365],
						"1.8333": [0, 0, -0.05],
						"2.2917": [0, 0, 0]
					}
				}
			}
		},
		"animation.alcremie.sleep": {
			"loop": true,
			"bones": {
				"body": {
					"rotation": [0, -15, 0]
				},
				"torso_top": {
					"rotation": [-4.43179, 23.95485, "-49.8651+Math.cos((query.anim_time-0.2) * 90 * 1) * 2"],
					"position": [-1, "Math.cos((query.anim_time-0.2) * 90 * 1) * 0.15", 0]
				},
				"head": {
					"rotation": [0, -5, "-22.5+Math.cos((query.anim_time-0.4) * 90 * 1) * 3"]
				},
				"eyelid_right": {
					"position": [0, 0, -0.15]
				},
				"eyelid_left": {
					"position": [0, 0, -0.15]
				},
				"mouth_open": {
					"position": [0, 0, 0.25]
				},
				"head_top": {
					"rotation": [0, -12.5, "-22.5+Math.cos((query.anim_time-0.7) * 90 * 1) * 8"]
				},
				"head_top2": {
					"rotation": [1.082, -7.01688, "-5.0928+Math.cos((query.anim_time-1) * 90 * 1) * 4"]
				},
				"head_top3": {
					"rotation": [0, 0, "-7.5+Math.cos((query.anim_time-1.3) * 90 * 1) * 4"]
				},
				"head_top4": {
					"rotation": [0, 0, 7.5]
				},
				"hair_right": {
					"rotation": [13.26991, 14.04847, "-14.859+Math.cos((query.anim_time-0.5) * 90 * 1) * 3"]
				},
				"hair_left": {
					"rotation": [-3.8752, 3.39408, "12.5644+Math.cos((query.anim_time-0.7) * 90 * 1) * 2"]
				},
				"arm_right": {
					"rotation": [-10.27282, -0.95434, 96.95155],
					"position": [0, 0.25, 0.25]
				},
				"arm_right2": {
					"rotation": [0, 0, -15]
				},
				"arm_left": {
					"rotation": [-31.33128, -12.49212, -136.26753],
					"position": [-3, 0.5, -0.5]
				},
				"arm_left2": {
					"rotation": [0, 0, 27.5]
				},
				"torso_bottom": {
					"rotation": [0, 37.5, 0]
				}
			}
		},
		"animation.alcremie.blink": {
			"animation_length": 0.20833,
			"bones": {
				"eyelid_right": {
					"position": {
						"0.0": [0, 0, -0.1],
						"0.1667": [0, 0, -0.1],
						"0.2083": [0, 0, 0.1]
					}
				},
				"eyelid_left": {
					"position": {
						"0.0": [0, 0, -0.1],
						"0.1667": [0, 0, -0.1],
						"0.2083": [0, 0, 0.1]
					}
				}
			}
		},
		"animation.alcremie.shoulder_left": {
			"loop": true,
			"bones": {
				"torso_top": {
					"rotation": [0, -7.5, 0],
					"position": [-0.25, "0+Math.cos((query.anim_time) * 90 * 1) * 0.2", 0.5]
				},
				"head": {
					"rotation": [0, 7.5, 0],
					"position": [0, "-0.25+Math.cos((query.anim_time-0.5) * 90 * 1) * 0.2", 0]
				},
				"mouth_closed": {
					"position": [0, 0, -0.075]
				},
				"head_top": {
					"rotation": [0, 0, "Math.cos((query.anim_time-0.8) * 90 * 1) * 5"]
				},
				"head_top2": {
					"rotation": [0, 0, "Math.cos((query.anim_time-1.2) * 90 * 1) * 5"]
				},
				"head_top3": {
					"rotation": [0, 0, "Math.cos((query.anim_time-1.6) * 90 * 1) * 5"]
				},
				"hair_right": {
					"rotation": [0, 0, "Math.cos((query.anim_time-0.8) * 90 * 1) * 2.5"]
				},
				"hair_left": {
					"rotation": [0, 0, "-(Math.cos((query.anim_time-0.8) * 90 * 1) * 2.5)"]
				},
				"arm_right": {
					"rotation": [123.74471, 15.08807, -138.56862]
				},
				"arm_right2": {
					"rotation": [0, 0, 12.5]
				},
				"arm_left": {
					"rotation": [104.8731, 1.65204, 126.61304]
				},
				"torso_right": {
					"rotation": [0, 0, 0]
				},
				"torso_bottom_front": {
					"rotation": [50, 0, 0]
				},
				"torso_left": {
					"rotation": [0, 0, 50]
				},
				"torso_bottom_back": {
					"rotation": [-50, 0, 0]
				}
			}
		},
		"animation.alcremie.shoulder_right": {
			"loop": true,
			"bones": {
				"torso_top": {
					"rotation": [0, 7.5, 0],
					"position": [0.25, "0+Math.cos((query.anim_time) * 90 * 1) * 0.2", 0.5]
				},
				"head": {
					"rotation": [0, -7.5, 0],
					"position": [0, "-0.25+Math.cos((query.anim_time-0.5) * 90 * 1) * 0.2", 0]
				},
				"head_top": {
					"rotation": [0, 0, "Math.cos((query.anim_time-0.8) * 90 * 1) * 5"]
				},
				"head_top2": {
					"rotation": [0, 0, "Math.cos((query.anim_time-1.2) * 90 * 1) * 5"]
				},
				"head_top3": {
					"rotation": [0, 0, "Math.cos((query.anim_time-1.6) * 90 * 1) * 5"]
				},
				"hair_right": {
					"rotation": [0, 0, "Math.cos((query.anim_time-0.8) * 90 * 1) * 2.5"]
				},
				"hair_left": {
					"rotation": [0, 0, "-(Math.cos((query.anim_time-0.8) * 90 * 1) * 2.5)"]
				},
				"arm_right": {
					"rotation": [-68.33966, -1.52081, -135.54152],
					"position": [0, 0.5, 0]
				},
				"arm_right2": {
					"rotation": [0, 0, 0]
				},
				"arm_left": {
					"rotation": [-48.67855, -9.54429, 143.31858],
					"position": [-0.28049, -0.25, -0.21523]
				},
				"torso_right": {
					"rotation": [0, 0, -50]
				},
				"torso_bottom_front": {
					"rotation": [50, 0, 0]
				},
				"torso_left": {
					"rotation": [0, 0, 0]
				},
				"torso_bottom_back": {
					"rotation": [-50, 0, 0]
				},
				"mouth_closed": {
					"position": [0, 0, -0.075]
				}
			}
		}
	}
}