{
	"credit": "Eiko",
	"textures": {
		"trim": "block/stripped_spruce_log",
		"glass": "block/glass",
		"material": "block/stripped_oak_log",
		"handle": "block/iron_block"
	},
	"elements": [
		{
			"from": [1, 1, 15],
			"to": [15, 15, 16],
			"faces": {
				"north": {"uv": [0, 0, 14, 14], "texture": "#material"},
				"east": {"uv": [0, 0, 1, 14], "texture": "#material"},
				"south": {"uv": [1, 1, 15, 15], "texture": "#material"},
				"west": {"uv": [0, 0, 1, 14], "texture": "#material"},
				"up": {"uv": [0, 0, 14, 1], "texture": "#material"},
				"down": {"uv": [0, 0, 14, 1], "texture": "#material"}
			}
		},
		{
			"from": [0, 0, 2],
			"to": [16, 1, 16],
			"faces": {
				"north": {"uv": [0, 15, 16, 16], "texture": "#material"},
				"east": {"uv": [0, 15, 14, 16], "texture": "#material"},
				"south": {"uv": [0, 15, 16, 16], "texture": "#material"},
				"west": {"uv": [2, 15, 16, 16], "texture": "#material"},
				"up": {"uv": [0, 0, 16, 14], "texture": "#material"},
				"down": {"uv": [0, 0, 16, 14], "texture": "#material"}
			}
		},
		{
			"from": [0, 15, 2],
			"to": [16, 16, 16],
			"faces": {
				"north": {"uv": [0, 0, 16, 1], "texture": "#material"},
				"east": {"uv": [0, 0, 14, 1], "texture": "#material"},
				"south": {"uv": [0, 0, 16, 1], "texture": "#material"},
				"west": {"uv": [2, 0, 16, 1], "texture": "#material"},
				"up": {"uv": [0, 0, 16, 14], "texture": "#material"},
				"down": {"uv": [0, 0, 16, 14], "texture": "#material"}
			}
		},
		{
			"from": [1, 7, 2],
			"to": [15, 8, 15],
			"faces": {
				"north": {"uv": [1, 7, 15, 8], "texture": "#material"},
				"east": {"uv": [2, 7, 14, 9], "texture": "#material"},
				"south": {"uv": [1, 7, 15, 9], "texture": "#material"},
				"west": {"uv": [2, 7, 14, 9], "texture": "#material"},
				"up": {"uv": [1, 3, 15, 16], "texture": "#material"},
				"down": {"uv": [1, 3, 15, 16], "texture": "#material"}
			}
		},
		{
			"from": [15, 1, 2],
			"to": [16, 15, 16],
			"faces": {
				"north": {"uv": [0, 1, 1, 15], "texture": "#material"},
				"east": {"uv": [0, 1, 14, 15], "texture": "#material"},
				"south": {"uv": [0, 1, 1, 15], "texture": "#material"},
				"west": {"uv": [0, 1, 14, 15], "texture": "#material"},
				"up": {"uv": [0, 1, 1, 15], "texture": "#material"},
				"down": {"uv": [0, 1, 1, 15], "texture": "#material"}
			}
		},
		{
			"from": [0, 1, 2],
			"to": [1, 15, 16],
			"faces": {
				"north": {"uv": [15, 1, 16, 15], "texture": "#material"},
				"east": {"uv": [0, 0, 14, 14], "texture": "#material"},
				"south": {"uv": [0, 1, 1, 15], "texture": "#material"},
				"west": {"uv": [2, 1, 16, 15], "texture": "#material"},
				"up": {"uv": [0, 0, 1, 14], "texture": "#material"},
				"down": {"uv": [0, 0, 1, 14], "texture": "#material"}
			}
		},
		{
			"from": [0, 0, 0],
			"to": [2, 7, 2],
			"rotation": {"angle": 0, "axis": "y", "origin": [15, 16, 1]},
			"faces": {
				"north": {"uv": [7, 9, 9, 16], "texture": "#material"},
				"east": {"uv": [5, 9, 7, 16], "texture": "#material"},
				"south": {"uv": [3, 9, 5, 16], "texture": "#material"},
				"west": {"uv": [9, 9, 11, 16], "texture": "#material"},
				"up": {"uv": [3, 9, 5, 11], "texture": "#material"},
				"down": {"uv": [9, 14, 11, 16], "texture": "#material"}
			}
		},
		{
			"from": [2, 0, 0],
			"to": [14, 2, 2],
			"rotation": {"angle": 0, "axis": "y", "origin": [15, 16, 1]},
			"faces": {
				"north": {"uv": [7, 1, 9, 13], "rotation": 90, "texture": "#material"},
				"east": {"uv": [7, 1, 9, 3], "rotation": 90, "texture": "#material"},
				"south": {"uv": [11, 1, 13, 13], "rotation": 90, "texture": "#material"},
				"west": {"uv": [7, 1, 9, 3], "rotation": 90, "texture": "#material"},
				"up": {"uv": [9, 1, 11, 13], "rotation": 90, "texture": "#material"},
				"down": {"uv": [5, 1, 7, 13], "rotation": 90, "texture": "#material"}
			}
		},
		{
			"from": [2, 2, 1],
			"to": [14, 7, 2],
			"rotation": {"angle": 0, "axis": "y", "origin": [15, 16, 1]},
			"faces": {
				"north": {"uv": [2, 9, 14, 14], "texture": "#material"},
				"east": {"uv": [0, 0, 1, 5], "texture": "#material"},
				"south": {"uv": [2, 9, 14, 14], "texture": "#material"},
				"west": {"uv": [0, 0, 1, 5], "texture": "#material"},
				"up": {"uv": [0, 0, 12, 1], "texture": "#material"},
				"down": {"uv": [0, 0, 12, 1], "texture": "#material"}
			}
		},
		{
			"from": [14, 0, 0],
			"to": [16, 7, 2],
			"rotation": {"angle": 0, "axis": "y", "origin": [15, 16, 1]},
			"faces": {
				"north": {"uv": [7, 9, 9, 16], "texture": "#material"},
				"east": {"uv": [5, 9, 7, 16], "texture": "#material"},
				"south": {"uv": [3, 9, 5, 16], "texture": "#material"},
				"west": {"uv": [9, 9, 11, 16], "texture": "#material"},
				"up": {"uv": [3, 9, 5, 11], "texture": "#material"},
				"down": {"uv": [9, 14, 11, 16], "texture": "#material"}
			}
		},
		{
			"from": [0, 7, 0],
			"to": [16, 8, 2],
			"rotation": {"angle": 0, "axis": "y", "origin": [15, 16, 1]},
			"faces": {
				"north": {"uv": [7, 0, 8, 16], "rotation": 90, "texture": "#material"},
				"east": {"uv": [6, 0, 7, 2], "rotation": 90, "texture": "#material"},
				"south": {"uv": [10, 0, 11, 16], "rotation": 90, "texture": "#material"},
				"west": {"uv": [6, 0, 7, 2], "rotation": 90, "texture": "#material"},
				"up": {"uv": [8, 0, 10, 16], "rotation": 90, "texture": "#material"},
				"down": {"uv": [5, 0, 7, 16], "rotation": 90, "texture": "#material"}
			}
		},
		{
			"from": [0, 17, 15],
			"to": [15, 31, 16],
			"faces": {
				"north": {"uv": [1, 0, 16, 14], "texture": "#material"},
				"east": {"uv": [0, 0, 1, 14], "texture": "#material"},
				"south": {"uv": [0, 1, 15, 15], "texture": "#material"},
				"west": {"uv": [15, 1, 16, 15], "texture": "#material"},
				"up": {"uv": [0, 0, 14, 1], "texture": "#material"},
				"down": {"uv": [0, 0, 14, 1], "texture": "#material"}
			}
		},
		{
			"from": [0, 16, 2],
			"to": [16, 17, 16],
			"faces": {
				"north": {"uv": [0, 15, 16, 16], "texture": "#material"},
				"east": {"uv": [0, 15, 14, 16], "texture": "#material"},
				"south": {"uv": [0, 15, 16, 16], "texture": "#material"},
				"west": {"uv": [2, 15, 16, 16], "texture": "#material"},
				"up": {"uv": [0, 0, 16, 14], "texture": "#material"},
				"down": {"uv": [0, 0, 16, 14], "texture": "#material"}
			}
		},
		{
			"from": [0, 31, 2],
			"to": [16, 32, 16],
			"faces": {
				"north": {"uv": [0, 0, 16, 1], "texture": "#material"},
				"east": {"uv": [0, 0, 14, 1], "texture": "#material"},
				"south": {"uv": [0, 0, 16, 1], "texture": "#material"},
				"west": {"uv": [2, 0, 16, 1], "texture": "#material"},
				"up": {"uv": [0, 0, 16, 14], "texture": "#material"},
				"down": {"uv": [0, 0, 16, 14], "texture": "#material"}
			}
		},
		{
			"from": [0, 16, 3],
			"to": [15, 18, 15],
			"faces": {
				"north": {"uv": [1, 7, 16, 9], "texture": "#trim"},
				"east": {"uv": [2, 7, 14, 9], "texture": "#trim"},
				"south": {"uv": [1, 7, 15, 9], "texture": "#trim"},
				"west": {"uv": [2, 7, 14, 9], "texture": "#trim"},
				"up": {"uv": [1, 4, 16, 16], "texture": "#trim"},
				"down": {"uv": [1, 4, 15, 16], "texture": "#trim"}
			}
		},
		{
			"from": [1, 8, 3],
			"to": [15, 9, 15],
			"faces": {
				"north": {"uv": [1, 7, 15, 8], "texture": "#trim"},
				"east": {"uv": [2, 7, 14, 9], "texture": "#trim"},
				"south": {"uv": [1, 7, 15, 9], "texture": "#trim"},
				"west": {"uv": [2, 7, 14, 9], "texture": "#trim"},
				"up": {"uv": [1, 4, 15, 16], "texture": "#trim"},
				"down": {"uv": [1, 4, 15, 16], "texture": "#trim"}
			}
		},
		{
			"from": [15, 17, 2],
			"to": [16, 31, 16],
			"faces": {
				"north": {"uv": [0, 1, 1, 15], "texture": "#material"},
				"east": {"uv": [0, 1, 14, 15], "texture": "#material"},
				"south": {"uv": [0, 1, 1, 15], "texture": "#material"},
				"west": {"uv": [0, 1, 14, 15], "texture": "#material"},
				"up": {"uv": [0, 1, 1, 15], "texture": "#material"},
				"down": {"uv": [0, 1, 1, 15], "texture": "#material"}
			}
		},
		{
			"from": [14, 8, 0],
			"to": [16, 16, 2],
			"rotation": {"angle": 0, "axis": "y", "origin": [15, 16, 1]},
			"faces": {
				"north": {"uv": [9, 2, 11, 8], "texture": "#material"},
				"east": {"uv": [7, 2, 9, 8], "texture": "#material"},
				"south": {"uv": [5, 2, 7, 8], "texture": "#material"},
				"west": {"uv": [3, 2, 5, 8], "texture": "#material"},
				"up": {"uv": [3, 2, 5, 4], "rotation": 90, "texture": "#material"},
				"down": {"uv": [9, 6, 11, 8], "rotation": 270, "texture": "#material"}
			}
		},
		{
			"from": [14, 8, -14],
			"to": [16, 16, -12],
			"rotation": {"angle": 0, "axis": "y", "origin": [15, 16, 1]},
			"faces": {
				"north": {"uv": [9, 2, 11, 9], "texture": "#material"},
				"east": {"uv": [7, 2, 9, 9], "texture": "#material"},
				"south": {"uv": [5, 2, 7, 9], "texture": "#material"},
				"west": {"uv": [3, 2, 5, 9], "texture": "#material"},
				"up": {"uv": [3, 2, 5, 4], "rotation": 90, "texture": "#material"},
				"down": {"uv": [9, 7, 11, 9], "rotation": 270, "texture": "#material"}
			}
		},
		{
			"from": [14, 8, -14],
			"to": [16, 16, -12],
			"rotation": {"angle": 0, "axis": "y", "origin": [15, 16, 1]},
			"faces": {
				"north": {"uv": [9, 2, 11, 9], "texture": "#material"},
				"east": {"uv": [7, 2, 9, 9], "texture": "#material"},
				"south": {"uv": [5, 2, 7, 9], "texture": "#material"},
				"west": {"uv": [3, 2, 5, 9], "texture": "#material"},
				"up": {"uv": [3, 2, 5, 4], "rotation": 90, "texture": "#material"},
				"down": {"uv": [9, 7, 11, 9], "rotation": 270, "texture": "#material"}
			}
		},
		{
			"from": [14, 16, 0],
			"to": [16, 32, 2],
			"rotation": {"angle": 0, "axis": "y", "origin": [15, 16, 1]},
			"faces": {
				"north": {"uv": [9, 0, 11, 16], "texture": "#material"},
				"east": {"uv": [7, 0, 9, 16], "texture": "#material"},
				"south": {"uv": [5, 0, 7, 16], "texture": "#material"},
				"west": {"uv": [3, 0, 5, 16], "texture": "#material"},
				"up": {"uv": [3, 0, 5, 2], "rotation": 90, "texture": "#material"},
				"down": {"uv": [9, 14, 11, 16], "rotation": 270, "texture": "#material"}
			}
		},
		{
			"from": [14, 16, -14],
			"to": [16, 32, -12],
			"rotation": {"angle": 0, "axis": "y", "origin": [15, 16, 1]},
			"faces": {
				"north": {"uv": [9, 0, 11, 16], "texture": "#material"},
				"east": {"uv": [7, 0, 9, 16], "texture": "#material"},
				"south": {"uv": [5, 0, 7, 16], "texture": "#material"},
				"west": {"uv": [3, 0, 5, 16], "texture": "#material"},
				"up": {"uv": [3, 0, 5, 2], "rotation": 90, "texture": "#material"},
				"down": {"uv": [9, 14, 11, 16], "rotation": 270, "texture": "#material"}
			}
		},
		{
			"from": [14, 8, -12],
			"to": [16, 9, 0],
			"rotation": {"angle": 0, "axis": "y", "origin": [15, 16, 1]},
			"faces": {
				"north": {"uv": [7, 1, 8, 3], "rotation": 90, "texture": "#material"},
				"east": {"uv": [8, 1, 9, 13], "rotation": 90, "texture": "#material"},
				"south": {"uv": [7, 1, 8, 3], "rotation": 90, "texture": "#material"},
				"west": {"uv": [11, 1, 12, 13], "rotation": 90, "texture": "#material"},
				"up": {"uv": [9, 1, 11, 13], "rotation": 180, "texture": "#material"},
				"down": {"uv": [6, 1, 8, 13], "texture": "#material"}
			}
		},
		{
			"from": [14, 15, -12],
			"to": [16, 17, 0],
			"rotation": {"angle": 0, "axis": "y", "origin": [15, 16, 1]},
			"faces": {
				"north": {"uv": [7, 1, 9, 3], "rotation": 90, "texture": "#material"},
				"east": {"uv": [7, 1, 9, 13], "rotation": 90, "texture": "#material"},
				"south": {"uv": [7, 1, 9, 3], "rotation": 90, "texture": "#material"},
				"west": {"uv": [11, 1, 13, 13], "rotation": 90, "texture": "#material"},
				"up": {"uv": [9, 1, 11, 13], "rotation": 180, "texture": "#material"},
				"down": {"uv": [5, 1, 7, 13], "texture": "#material"}
			}
		},
		{
			"from": [14, 30, -12],
			"to": [16, 32, 0],
			"rotation": {"angle": 0, "axis": "y", "origin": [15, 16, 1]},
			"faces": {
				"north": {"uv": [7, 1, 9, 3], "rotation": 90, "texture": "#material"},
				"east": {"uv": [7, 1, 9, 13], "rotation": 90, "texture": "#material"},
				"south": {"uv": [7, 1, 9, 3], "rotation": 90, "texture": "#material"},
				"west": {"uv": [11, 1, 13, 13], "rotation": 90, "texture": "#material"},
				"up": {"uv": [9, 1, 11, 13], "rotation": 180, "texture": "#material"},
				"down": {"uv": [5, 1, 7, 13], "texture": "#material"}
			}
		},
		{
			"from": [14, 17, -12],
			"to": [15, 30, 0],
			"rotation": {"angle": 0, "axis": "y", "origin": [15, 16, 1]},
			"faces": {
				"north": {"uv": [2, 1, 3, 15], "texture": "#glass"},
				"east": {"uv": [2, 1, 14, 14], "texture": "#glass"},
				"south": {"uv": [2, 1, 3, 15], "texture": "#glass"},
				"west": {"uv": [2, 1, 14, 14], "texture": "#glass"},
				"up": {"uv": [2, 1, 14, 2], "rotation": 90, "texture": "#glass"},
				"down": {"uv": [2, 1, 14, 2], "rotation": 270, "texture": "#glass"}
			}
		},
		{
			"from": [14, 9, -12],
			"to": [15, 15, 0],
			"rotation": {"angle": 0, "axis": "y", "origin": [15, 16, 1]},
			"faces": {
				"north": {"uv": [2, 1, 3, 6], "texture": "#glass"},
				"east": {"uv": [2, 1, 14, 7], "texture": "#glass"},
				"south": {"uv": [2, 1, 3, 6], "texture": "#glass"},
				"west": {"uv": [2, 1, 14, 7], "texture": "#glass"},
				"up": {"uv": [2, 1, 14, 2], "rotation": 90, "texture": "#glass"},
				"down": {"uv": [2, 1, 14, 2], "rotation": 270, "texture": "#glass"}
			}
		},
		{
			"from": [16, 14, -13],
			"to": [17, 18, -12],
			"rotation": {"angle": 0, "axis": "y", "origin": [15, 16, 1]},
			"faces": {
				"north": {"uv": [9, 6, 10, 10], "texture": "#handle"},
				"east": {"uv": [6, 6, 7, 10], "texture": "#handle"},
				"south": {"uv": [7, 6, 8, 10], "texture": "#handle"},
				"west": {"uv": [8, 6, 9, 10], "texture": "#handle"},
				"up": {"uv": [9, 9, 10, 10], "rotation": 90, "texture": "#handle"},
				"down": {"uv": [6, 6, 7, 7], "rotation": 270, "texture": "#handle"}
			}
		},
		{
			"from": [-15, 1, 15],
			"to": [-1, 15, 16],
			"faces": {
				"north": {"uv": [0, 0, 14, 14], "texture": "#material"},
				"east": {"uv": [0, 0, 1, 14], "texture": "#material"},
				"south": {"uv": [1, 1, 15, 15], "texture": "#material"},
				"west": {"uv": [0, 0, 1, 14], "texture": "#material"},
				"up": {"uv": [0, 0, 14, 1], "texture": "#material"},
				"down": {"uv": [0, 0, 14, 1], "texture": "#material"}
			}
		},
		{
			"from": [-16, 0, 2],
			"to": [0, 1, 16],
			"faces": {
				"north": {"uv": [0, 15, 16, 16], "texture": "#material"},
				"east": {"uv": [0, 15, 14, 16], "texture": "#material"},
				"south": {"uv": [0, 15, 16, 16], "texture": "#material"},
				"west": {"uv": [2, 15, 16, 16], "texture": "#material"},
				"up": {"uv": [0, 0, 16, 14], "texture": "#material"},
				"down": {"uv": [0, 0, 16, 14], "texture": "#material"}
			}
		},
		{
			"from": [-16, 15, 2],
			"to": [0, 16, 16],
			"faces": {
				"north": {"uv": [0, 0, 16, 1], "texture": "#material"},
				"east": {"uv": [0, 0, 14, 1], "texture": "#material"},
				"south": {"uv": [0, 0, 16, 1], "texture": "#material"},
				"west": {"uv": [2, 0, 16, 1], "texture": "#material"},
				"up": {"uv": [0, 0, 16, 14], "texture": "#material"},
				"down": {"uv": [0, 0, 16, 14], "texture": "#material"}
			}
		},
		{
			"from": [-15, 7, 2],
			"to": [-1, 8, 15],
			"faces": {
				"north": {"uv": [1, 7, 15, 8], "texture": "#material"},
				"east": {"uv": [2, 7, 14, 9], "texture": "#material"},
				"south": {"uv": [1, 7, 15, 9], "texture": "#material"},
				"west": {"uv": [2, 7, 14, 9], "texture": "#material"},
				"up": {"uv": [1, 3, 15, 16], "texture": "#material"},
				"down": {"uv": [1, 3, 15, 16], "texture": "#material"}
			}
		},
		{
			"from": [-1, 1, 2],
			"to": [0, 15, 16],
			"faces": {
				"north": {"uv": [0, 1, 1, 15], "texture": "#material"},
				"east": {"uv": [0, 1, 14, 15], "texture": "#material"},
				"south": {"uv": [0, 1, 1, 15], "texture": "#material"},
				"west": {"uv": [0, 1, 14, 15], "texture": "#material"},
				"up": {"uv": [0, 1, 1, 15], "texture": "#material"},
				"down": {"uv": [0, 1, 1, 15], "texture": "#material"}
			}
		},
		{
			"from": [-16, 1, 2],
			"to": [-15, 15, 16],
			"faces": {
				"north": {"uv": [15, 1, 16, 15], "texture": "#material"},
				"east": {"uv": [0, 0, 14, 14], "texture": "#material"},
				"south": {"uv": [0, 1, 1, 15], "texture": "#material"},
				"west": {"uv": [2, 1, 16, 15], "texture": "#material"},
				"up": {"uv": [0, 0, 1, 14], "texture": "#material"},
				"down": {"uv": [0, 0, 1, 14], "texture": "#material"}
			}
		},
		{
			"from": [-16, 0, 0],
			"to": [-14, 7, 2],
			"rotation": {"angle": 0, "axis": "y", "origin": [15, 16, 1]},
			"faces": {
				"north": {"uv": [7, 9, 9, 16], "texture": "#material"},
				"east": {"uv": [5, 9, 7, 16], "texture": "#material"},
				"south": {"uv": [3, 9, 5, 16], "texture": "#material"},
				"west": {"uv": [9, 9, 11, 16], "texture": "#material"},
				"up": {"uv": [3, 9, 5, 11], "texture": "#material"},
				"down": {"uv": [9, 14, 11, 16], "texture": "#material"}
			}
		},
		{
			"from": [-14, 0, 0],
			"to": [-2, 2, 2],
			"rotation": {"angle": 0, "axis": "y", "origin": [15, 16, 1]},
			"faces": {
				"north": {"uv": [7, 1, 9, 13], "rotation": 90, "texture": "#material"},
				"east": {"uv": [7, 1, 9, 3], "rotation": 90, "texture": "#material"},
				"south": {"uv": [11, 1, 13, 13], "rotation": 90, "texture": "#material"},
				"west": {"uv": [7, 1, 9, 3], "rotation": 90, "texture": "#material"},
				"up": {"uv": [9, 1, 11, 13], "rotation": 90, "texture": "#material"},
				"down": {"uv": [5, 1, 7, 13], "rotation": 90, "texture": "#material"}
			}
		},
		{
			"from": [-14, 2, 1],
			"to": [-2, 7, 2],
			"rotation": {"angle": 0, "axis": "y", "origin": [15, 16, 1]},
			"faces": {
				"north": {"uv": [2, 9, 14, 14], "texture": "#material"},
				"east": {"uv": [0, 0, 1, 5], "texture": "#material"},
				"south": {"uv": [2, 9, 14, 14], "texture": "#material"},
				"west": {"uv": [0, 0, 1, 5], "texture": "#material"},
				"up": {"uv": [0, 0, 12, 1], "texture": "#material"},
				"down": {"uv": [0, 0, 12, 1], "texture": "#material"}
			}
		},
		{
			"from": [-2, 0, 0],
			"to": [0, 7, 2],
			"rotation": {"angle": 0, "axis": "y", "origin": [15, 16, 1]},
			"faces": {
				"north": {"uv": [7, 9, 9, 16], "texture": "#material"},
				"east": {"uv": [5, 9, 7, 16], "texture": "#material"},
				"south": {"uv": [3, 9, 5, 16], "texture": "#material"},
				"west": {"uv": [9, 9, 11, 16], "texture": "#material"},
				"up": {"uv": [3, 9, 5, 11], "texture": "#material"},
				"down": {"uv": [9, 14, 11, 16], "texture": "#material"}
			}
		},
		{
			"from": [-16, 7, 0],
			"to": [0, 8, 2],
			"rotation": {"angle": 0, "axis": "y", "origin": [15, 16, 1]},
			"faces": {
				"north": {"uv": [7, 0, 8, 16], "rotation": 90, "texture": "#material"},
				"east": {"uv": [6, 0, 7, 2], "rotation": 90, "texture": "#material"},
				"south": {"uv": [10, 0, 11, 16], "rotation": 90, "texture": "#material"},
				"west": {"uv": [6, 0, 7, 2], "rotation": 90, "texture": "#material"},
				"up": {"uv": [8, 0, 10, 16], "rotation": 90, "texture": "#material"},
				"down": {"uv": [5, 0, 7, 16], "rotation": 90, "texture": "#material"}
			}
		},
		{
			"from": [-16, 17, 15],
			"to": [0, 31, 16],
			"faces": {
				"north": {"uv": [0, 0, 16, 14], "texture": "#material"},
				"east": {"uv": [0, 0, 1, 14], "texture": "#material"},
				"south": {"uv": [0, 1, 16, 15], "texture": "#material"},
				"west": {"uv": [15, 1, 16, 15], "texture": "#material"},
				"up": {"uv": [0, 0, 14, 1], "texture": "#material"},
				"down": {"uv": [0, 0, 14, 1], "texture": "#material"}
			}
		},
		{
			"from": [-16, 16, 2],
			"to": [0, 17, 16],
			"faces": {
				"north": {"uv": [0, 15, 16, 16], "texture": "#material"},
				"east": {"uv": [0, 15, 14, 16], "texture": "#material"},
				"south": {"uv": [0, 15, 16, 16], "texture": "#material"},
				"west": {"uv": [2, 15, 16, 16], "texture": "#material"},
				"up": {"uv": [0, 0, 16, 14], "texture": "#material"},
				"down": {"uv": [0, 0, 16, 14], "texture": "#material"}
			}
		},
		{
			"from": [-16, 31, 2],
			"to": [0, 32, 16],
			"faces": {
				"north": {"uv": [0, 0, 16, 1], "texture": "#material"},
				"east": {"uv": [0, 0, 14, 1], "texture": "#material"},
				"south": {"uv": [0, 0, 16, 1], "texture": "#material"},
				"west": {"uv": [2, 0, 16, 1], "texture": "#material"},
				"up": {"uv": [0, 0, 16, 14], "texture": "#material"},
				"down": {"uv": [0, 0, 16, 14], "texture": "#material"}
			}
		},
		{
			"from": [-15, 16, 3],
			"to": [0, 18, 15],
			"faces": {
				"north": {"uv": [0, 7, 15, 9], "texture": "#trim"},
				"east": {"uv": [2, 7, 14, 9], "texture": "#trim"},
				"south": {"uv": [1, 7, 15, 9], "texture": "#trim"},
				"west": {"uv": [2, 7, 14, 9], "texture": "#trim"},
				"up": {"uv": [0, 4, 15, 16], "texture": "#trim"},
				"down": {"uv": [1, 4, 15, 16], "texture": "#trim"}
			}
		},
		{
			"from": [-15, 8, 3],
			"to": [-1, 9, 15],
			"faces": {
				"north": {"uv": [1, 7, 15, 8], "texture": "#trim"},
				"east": {"uv": [2, 7, 14, 9], "texture": "#trim"},
				"south": {"uv": [1, 7, 15, 9], "texture": "#trim"},
				"west": {"uv": [2, 7, 14, 9], "texture": "#trim"},
				"up": {"uv": [1, 4, 15, 16], "texture": "#trim"},
				"down": {"uv": [1, 4, 15, 16], "texture": "#trim"}
			}
		},
		{
			"from": [-16, 17, 2],
			"to": [-15, 31, 15],
			"faces": {
				"north": {"uv": [0, 1, 1, 15], "texture": "#material"},
				"east": {"uv": [0, 1, 14, 15], "texture": "#material"},
				"south": {"uv": [0, 1, 1, 15], "texture": "#material"},
				"west": {"uv": [1, 1, 15, 15], "texture": "#material"},
				"up": {"uv": [0, 1, 1, 15], "texture": "#material"},
				"down": {"uv": [0, 1, 1, 15], "texture": "#material"}
			}
		},
		{
			"from": [-2, 8, 0],
			"to": [0, 16, 2],
			"rotation": {"angle": 0, "axis": "y", "origin": [-15, 16, 1]},
			"faces": {
				"north": {"uv": [7, 2, 9, 8], "texture": "#material"},
				"east": {"uv": [5, 2, 7, 8], "texture": "#material"},
				"south": {"uv": [3, 2, 5, 8], "texture": "#material"},
				"west": {"uv": [9, 2, 11, 8], "texture": "#material"},
				"up": {"uv": [3, 2, 5, 4], "texture": "#material"},
				"down": {"uv": [9, 6, 11, 8], "texture": "#material"}
			}
		},
		{
			"from": [-16, 8, 0],
			"to": [-14, 16, 2],
			"rotation": {"angle": 0, "axis": "y", "origin": [-15, 16, 1]},
			"faces": {
				"north": {"uv": [7, 2, 9, 9], "texture": "#material"},
				"east": {"uv": [5, 2, 7, 9], "texture": "#material"},
				"south": {"uv": [3, 2, 5, 9], "texture": "#material"},
				"west": {"uv": [9, 2, 11, 9], "texture": "#material"},
				"up": {"uv": [3, 2, 5, 4], "texture": "#material"},
				"down": {"uv": [9, 7, 11, 9], "texture": "#material"}
			}
		},
		{
			"from": [-16, 8, 0],
			"to": [-14, 16, 2],
			"rotation": {"angle": 0, "axis": "y", "origin": [-15, 16, 1]},
			"faces": {
				"north": {"uv": [7, 2, 9, 9], "texture": "#material"},
				"east": {"uv": [5, 2, 7, 9], "texture": "#material"},
				"south": {"uv": [3, 2, 5, 9], "texture": "#material"},
				"west": {"uv": [9, 2, 11, 9], "texture": "#material"},
				"up": {"uv": [3, 2, 5, 4], "texture": "#material"},
				"down": {"uv": [9, 7, 11, 9], "texture": "#material"}
			}
		},
		{
			"from": [-2, 16, 0],
			"to": [0, 32, 2],
			"rotation": {"angle": 0, "axis": "y", "origin": [-15, 16, 1]},
			"faces": {
				"north": {"uv": [7, 0, 9, 16], "texture": "#material"},
				"east": {"uv": [5, 0, 7, 16], "texture": "#material"},
				"south": {"uv": [3, 0, 5, 16], "texture": "#material"},
				"west": {"uv": [9, 0, 11, 16], "texture": "#material"},
				"up": {"uv": [3, 0, 5, 2], "texture": "#material"},
				"down": {"uv": [9, 14, 11, 16], "texture": "#material"}
			}
		},
		{
			"from": [-16, 16, 0],
			"to": [-14, 32, 2],
			"rotation": {"angle": 0, "axis": "y", "origin": [-15, 16, 1]},
			"faces": {
				"north": {"uv": [7, 0, 9, 16], "texture": "#material"},
				"east": {"uv": [5, 0, 7, 16], "texture": "#material"},
				"south": {"uv": [3, 0, 5, 16], "texture": "#material"},
				"west": {"uv": [9, 0, 11, 16], "texture": "#material"},
				"up": {"uv": [3, 0, 5, 2], "texture": "#material"},
				"down": {"uv": [9, 14, 11, 16], "texture": "#material"}
			}
		},
		{
			"from": [-14, 8, 0],
			"to": [-2, 9, 2],
			"rotation": {"angle": 0, "axis": "y", "origin": [-15, 16, 1]},
			"faces": {
				"north": {"uv": [8, 1, 9, 13], "rotation": 90, "texture": "#material"},
				"east": {"uv": [7, 1, 8, 3], "rotation": 90, "texture": "#material"},
				"south": {"uv": [11, 1, 12, 13], "rotation": 90, "texture": "#material"},
				"west": {"uv": [7, 1, 8, 3], "rotation": 90, "texture": "#material"},
				"up": {"uv": [9, 1, 11, 13], "rotation": 90, "texture": "#material"},
				"down": {"uv": [6, 1, 8, 13], "rotation": 90, "texture": "#material"}
			}
		},
		{
			"from": [-14, 15, 0],
			"to": [-2, 17, 2],
			"rotation": {"angle": 0, "axis": "y", "origin": [-15, 16, 1]},
			"faces": {
				"north": {"uv": [7, 1, 9, 13], "rotation": 90, "texture": "#material"},
				"east": {"uv": [7, 1, 9, 3], "rotation": 90, "texture": "#material"},
				"south": {"uv": [11, 1, 13, 13], "rotation": 90, "texture": "#material"},
				"west": {"uv": [7, 1, 9, 3], "rotation": 90, "texture": "#material"},
				"up": {"uv": [9, 1, 11, 13], "rotation": 90, "texture": "#material"},
				"down": {"uv": [5, 1, 7, 13], "rotation": 90, "texture": "#material"}
			}
		},
		{
			"from": [-14, 30, 0],
			"to": [-2, 32, 2],
			"rotation": {"angle": 0, "axis": "y", "origin": [-15, 16, 1]},
			"faces": {
				"north": {"uv": [7, 1, 9, 13], "rotation": 90, "texture": "#material"},
				"east": {"uv": [7, 1, 9, 3], "rotation": 90, "texture": "#material"},
				"south": {"uv": [11, 1, 13, 13], "rotation": 90, "texture": "#material"},
				"west": {"uv": [7, 1, 9, 3], "rotation": 90, "texture": "#material"},
				"up": {"uv": [9, 1, 11, 13], "rotation": 90, "texture": "#material"},
				"down": {"uv": [5, 1, 7, 13], "rotation": 90, "texture": "#material"}
			}
		},
		{
			"from": [-14, 17, 1],
			"to": [-2, 30, 2],
			"rotation": {"angle": 0, "axis": "y", "origin": [-15, 16, 1]},
			"faces": {
				"north": {"uv": [2, 1, 14, 14], "texture": "#glass"},
				"east": {"uv": [2, 1, 3, 15], "texture": "#glass"},
				"south": {"uv": [2, 1, 14, 14], "texture": "#glass"},
				"west": {"uv": [2, 1, 3, 15], "texture": "#glass"},
				"up": {"uv": [2, 1, 14, 2], "texture": "#glass"},
				"down": {"uv": [2, 1, 14, 2], "texture": "#glass"}
			}
		},
		{
			"from": [-14, 9, 1],
			"to": [-2, 15, 2],
			"rotation": {"angle": 0, "axis": "y", "origin": [-15, 16, 1]},
			"faces": {
				"north": {"uv": [2, 1, 14, 7], "texture": "#glass"},
				"east": {"uv": [2, 1, 3, 6], "texture": "#glass"},
				"south": {"uv": [2, 1, 14, 7], "texture": "#glass"},
				"west": {"uv": [2, 1, 3, 6], "texture": "#glass"},
				"up": {"uv": [2, 1, 14, 2], "texture": "#glass"},
				"down": {"uv": [2, 1, 14, 2], "texture": "#glass"}
			}
		},
		{
			"from": [-2, 14, -1],
			"to": [-1, 18, 0],
			"rotation": {"angle": 0, "axis": "y", "origin": [-15, 16, 1]},
			"faces": {
				"north": {"uv": [6, 6, 7, 10], "texture": "#handle"},
				"east": {"uv": [7, 6, 8, 10], "texture": "#handle"},
				"south": {"uv": [8, 6, 9, 10], "texture": "#handle"},
				"west": {"uv": [9, 6, 10, 10], "texture": "#handle"},
				"up": {"uv": [9, 9, 10, 10], "texture": "#handle"},
				"down": {"uv": [6, 6, 7, 7], "texture": "#handle"}
			}
		}
	],
	"groups": [
		{
			"name": "Left Case",
			"origin": [0, 0, 0],
			"color": 0,
			"children": [
				{
					"name": "Case Bottom",
					"origin": [0, 0, 0],
					"color": 0,
					"children": [0, 1, 2, 3, 4, 5, 6, 7, 8, 9, 10]
				},
				{
					"name": "Case Top",
					"origin": [0, 0, 0],
					"color": 0,
					"children": [11, 12, 13, 14, 15, 16]
				},
				{
					"name": "Door",
					"origin": [0, 0, 0],
					"color": 0,
					"children": [17, 18, 19, 20, 21, 22, 23, 24, 25, 26, 27]
				}
			]
		},
		{
			"name": "Right Case",
			"origin": [0, 0, 0],
			"color": 0,
			"children": [
				{
					"name": "Case Bottom",
					"origin": [0, 0, 0],
					"color": 0,
					"children": [28, 29, 30, 31, 32, 33, 34, 35, 36, 37, 38]
				},
				{
					"name": "Case Top",
					"origin": [0, 0, 0],
					"color": 0,
					"children": [39, 40, 41, 42, 43, 44]
				},
				{
					"name": "Door",
					"origin": [0, 0, 0],
					"color": 0,
					"children": [45, 46, 47, 48, 49, 50, 51, 52, 53, 54, 55]
				}
			]
		}
	]
}