{
	"credit": "Made with Blockbench",
	"textures": {
		"12": "calcium"
	},
	"elements": [
		{
			"from": [6, 0, 6],
			"to": [10, 6, 10],
			"faces": {
				"north": {"uv": [0, 0, 4, 6], "texture": "#12"},
				"east": {"uv": [4, 0, 8, 6], "texture": "#12"},
				"south": {"uv": [0, 6, 4, 12], "texture": "#12"},
				"west": {"uv": [4, 6, 8, 12], "texture": "#12"},
				"up": {"uv": [12, 4, 8, 0], "texture": "#12"},
				"down": {"uv": [12, 4, 8, 8], "texture": "#12"}
			}
		},
		{
			"from": [7, 6, 7],
			"to": [9, 7, 9],
			"faces": {
				"north": {"uv": [10, 8, 12, 9], "texture": "#12"},
				"east": {"uv": [10, 9, 12, 10], "texture": "#12"},
				"south": {"uv": [10, 10, 12, 11], "texture": "#12"},
				"west": {"uv": [10, 11, 12, 12], "texture": "#12"},
				"up": {"uv": [10, 10, 8, 8], "texture": "#12"},
				"down": {"uv": [10, 10, 8, 12], "texture": "#12"}
			}
		}
	],
	"display": {
		"thirdperson_righthand": {
			"translation": [-1.5, 5, 0]
		},
		"thirdperson_lefthand": {
			"translation": [-1.5, 5, 0],
			"scale": [-1, 1, 1]
		},
		"firstperson_righthand": {
			"rotation": [0, -180, 0],
			"translation": [0, 7.25, 0]
		},
		"firstperson_lefthand": {
			"rotation": [0, -180, 0],
			"translation": [0, 7.25, 0]
		},
		"ground": {
			"translation": [0, 4.5, 0]
		},
		"gui": {
			"rotation": [0, -180, 0],
			"translation": [0, 7.75, 0],
			"scale": [1.7, 1.7, 1.7]
		},
		"head": {
			"translation": [0, 14.5, 0]
		},
		"fixed": {
			"translation": [0, 9.25, 0],
			"scale": [2, 2, 0.5]
		}
	},
	"groups": [
		{
			"name": "Calcium",
			"origin": [0, 0, 0],
			"color": 0,
			"children": [0, 1]
		}
	]
}