{
	"credit": "Made with Blockbench",
	"parent": "block/block",
	"textures": {
		"bone_column": "block/bone_block_side",
		"bone_top": "block/bone_block_top",
		"particle": "block/nether_wart_block",
		"wart": "block/nether_wart_block",
		"soil": "block/soul_soil",
		"magma": "block/magma"
	},
	"elements": [
		{
			"name": "bed",
			"from": [4, 0, 4],
			"to": [12, 2, 12],
			"rotation": {"angle": 0, "axis": "y", "origin": [4, 0, 4]},
			"faces": {
				"up": {"uv": [4, 4, 12, 12], "texture": "#soil"},
				"down": {"uv": [4, 4, 12, 12], "texture": "#wart"}
			}
		},
		{
			"name": "netherwart1",
			"from": [3, 0, 2],
			"to": [13, 2, 4],
			"rotation": {"angle": 0, "axis": "y", "origin": [4, 0, 7]},
			"faces": {
				"north": {"uv": [3, 13, 13, 15], "texture": "#wart"},
				"east": {"uv": [12, 13, 14, 15], "texture": "#wart"},
				"west": {"uv": [2, 13, 4, 15], "texture": "#wart"},
				"up": {"uv": [3, 2, 13, 4], "texture": "#wart"},
				"down": {"uv": [3, 12, 13, 14], "texture": "#wart"}
			}
		},
		{
			"name": "netherwart2",
			"from": [3, 2, 2],
			"to": [8, 3, 3],
			"rotation": {"angle": 0, "axis": "y", "origin": [4, 2, 7]},
			"faces": {
				"north": {"uv": [3, 13, 8, 14], "texture": "#wart"},
				"south": {"uv": [3, 13, 8, 14], "texture": "#wart"},
				"west": {"uv": [2, 13, 3, 14], "texture": "#wart"},
				"up": {"uv": [3, 2, 8, 3], "texture": "#wart"},
				"down": {"uv": [3, 12, 8, 13], "texture": "#wart"}
			}
		},
		{
			"name": "netherwart3",
			"from": [2, 0, 3],
			"to": [4, 4, 13],
			"rotation": {"angle": 0, "axis": "y", "origin": [4, 0, 7]},
			"faces": {
				"north": {"uv": [12, 12, 14, 16], "texture": "#wart"},
				"east": {"uv": [3, 12, 13, 16], "texture": "#wart"},
				"south": {"uv": [2, 12, 4, 16], "texture": "#wart"},
				"west": {"uv": [3, 12, 13, 16], "texture": "#wart"},
				"up": {"uv": [2, 3, 4, 13], "texture": "#wart"},
				"down": {"uv": [2, 3, 4, 13], "texture": "#wart"}
			}
		},
		{
			"name": "netherwart4",
			"from": [2, 4, 8],
			"to": [4, 6, 13],
			"rotation": {"angle": 0, "axis": "y", "origin": [4, 4, 12]},
			"faces": {
				"north": {"uv": [12, 12, 14, 14], "texture": "#wart"},
				"east": {"uv": [3, 12, 8, 14], "texture": "#wart"},
				"south": {"uv": [2, 12, 4, 14], "texture": "#wart"},
				"west": {"uv": [3, 12, 8, 14], "texture": "#wart"},
				"up": {"uv": [2, 3, 4, 8], "texture": "#wart"},
				"down": {"uv": [2, 3, 4, 8], "texture": "#wart"}
			}
		},
		{
			"name": "netherwart5",
			"from": [3, 0, 12],
			"to": [13, 5, 14],
			"rotation": {"angle": 0, "axis": "y", "origin": [4, 0, 7]},
			"faces": {
				"north": {"uv": [3, 11, 13, 16], "texture": "#wart"},
				"east": {"uv": [2, 11, 4, 16], "texture": "#wart"},
				"south": {"uv": [3, 11, 13, 16], "texture": "#wart"},
				"west": {"uv": [12, 11, 14, 16], "texture": "#wart"},
				"up": {"uv": [3, 12, 13, 14], "texture": "#wart"},
				"down": {"uv": [3, 2, 13, 4], "texture": "#wart"}
			}
		},
		{
			"name": "netherwart6",
			"from": [12, 0, 3],
			"to": [14, 3, 13],
			"rotation": {"angle": 0, "axis": "y", "origin": [4, 0, 7]},
			"faces": {
				"north": {"uv": [2, 13, 4, 16], "texture": "#wart"},
				"east": {"uv": [3, 13, 13, 16], "texture": "#wart"},
				"south": {"uv": [12, 13, 14, 16], "texture": "#wart"},
				"west": {"uv": [3, 13, 13, 16], "texture": "#wart"},
				"up": {"uv": [12, 3, 14, 13], "texture": "#wart"},
				"down": {"uv": [12, 3, 14, 13], "texture": "#wart"}
			}
		},
		{
			"name": "bone1",
			"from": [6.35, -0.75, 0],
			"to": [10.35, 6.25, 4],
			"rotation": {"angle": -22.5, "axis": "z", "origin": [7.85, -0.75, 2]},
			"faces": {
				"north": {"uv": [12, 9.75, 16, 16], "texture": "#bone_column"},
				"east": {"uv": [0, 9.75, 4, 16], "texture": "#bone_column"},
				"south": {"uv": [12, 9.75, 16, 16], "texture": "#bone_column"},
				"west": {"uv": [0, 9.75, 4, 16], "texture": "#bone_column"},
				"up": {"uv": [0, 0, 4, 4], "texture": "#bone_top"},
				"down": {"uv": [0, 12, 4, 16], "texture": "#bone_top"}
			}
		},
		{
			"name": "bone2",
			"from": [0.425, 0, 4],
			"to": [4.425, 12, 8],
			"rotation": {"angle": 22.5, "axis": "z", "origin": [2.2, 0, 8]},
			"faces": {
				"north": {"uv": [0, 4, 4, 16], "texture": "#bone_column"},
				"east": {"uv": [12, 4, 16, 16], "texture": "#bone_column"},
				"south": {"uv": [0, 4, 4, 16], "texture": "#bone_column"},
				"west": {"uv": [12, 4, 16, 16], "texture": "#bone_column"},
				"up": {"uv": [1, 12, 5, 16], "texture": "#bone_top"},
				"down": {"uv": [0, 6, 4, 10], "texture": "#bone_top"}
			}
		},
		{
			"name": "bone3",
			"from": [4.75, -0.05, 13.2625],
			"to": [8.75, 14.95, 17.2625],
			"rotation": {"angle": -22.5, "axis": "y", "origin": [8, 0, 14]},
			"faces": {
				"north": {"uv": [0, 1.05, 4, 16], "texture": "#bone_column"},
				"east": {"uv": [12.05, 1.05, 16, 16], "texture": "#bone_column"},
				"south": {"uv": [0, 1.05, 4, 16], "texture": "#bone_column"},
				"west": {"uv": [12.05, 1.05, 16, 16], "texture": "#bone_column"},
				"up": {"uv": [0, 11.05, 4, 15], "texture": "#bone_top"},
				"down": {"uv": [3, 0, 7, 3.95], "texture": "#bone_top"}
			}
		},
		{
			"name": "bone4",
			"from": [11.5125, -0.05, 6],
			"to": [15.5125, 9.95, 10],
			"rotation": {"angle": -22.5, "axis": "z", "origin": [14, 0, 8]},
			"faces": {
				"north": {"uv": [0, 6.05, 3.95, 16], "texture": "#bone_column"},
				"east": {"uv": [12, 6.05, 16, 16], "texture": "#bone_column"},
				"south": {"uv": [0, 6.05, 3.95, 16], "texture": "#bone_column"},
				"west": {"uv": [12, 6.05, 16, 16], "texture": "#bone_column"},
				"up": {"uv": [0, 12, 3.95, 16], "texture": "#bone_top"},
				"down": {"uv": [12.05, 10, 16, 14], "texture": "#bone_top"}
			}
		},
		{
			"name": "magma1",
			"from": [1, -0.025, 1],
			"to": [6, 0.975, 4],
			"rotation": {"angle": 0, "axis": "y", "origin": [1, 0, 1]},
			"faces": {
				"north": {"uv": [10, 15, 15, 16], "texture": "#magma"},
				"east": {"uv": [12, 15, 15, 16], "texture": "#magma"},
				"south": {"uv": [1, 15, 6, 16], "texture": "#magma"},
				"west": {"uv": [0, 15, 3, 16], "texture": "#magma"},
				"up": {"uv": [7, 13, 12, 16], "texture": "#magma"},
				"down": {"uv": [1, 12, 6, 15], "texture": "#magma"}
			}
		},
		{
			"name": "magma2",
			"from": [1, -0.025, 11],
			"to": [4, 2.975, 15],
			"rotation": {"angle": 0, "axis": "y", "origin": [1, 0, 9]},
			"faces": {
				"north": {"uv": [1, 13, 4, 16], "texture": "#magma"},
				"east": {"uv": [4, 2, 7, 6], "rotation": 90, "texture": "#magma"},
				"south": {"uv": [8, 12, 11, 15], "texture": "#magma"},
				"west": {"uv": [1, 7, 4, 11], "rotation": 90, "texture": "#magma"},
				"up": {"uv": [15, 10, 12, 14], "texture": "#magma"},
				"down": {"uv": [11, 1, 14, 5], "texture": "#magma"}
			}
		},
		{
			"name": "magma3",
			"from": [11, -0.025, 9],
			"to": [15, 1.975, 15],
			"rotation": {"angle": 0, "axis": "y", "origin": [11, 0, 9]},
			"faces": {
				"north": {"uv": [1, 14.025, 5, 16], "texture": "#magma"},
				"east": {"uv": [4, 2, 6, 8], "rotation": 90, "texture": "#magma"},
				"south": {"uv": [4, 7, 8, 9], "texture": "#magma"},
				"west": {"uv": [3, 5, 5, 11], "rotation": 90, "texture": "#magma"},
				"up": {"uv": [0, 2, 4, 8], "rotation": 180, "texture": "#magma"},
				"down": {"uv": [11, 1, 15, 7], "texture": "#magma"}
			}
		}
	],
	"groups": [
		{
			"name": "nest",
			"origin": [8, 8, 8],
			"color": 0,
			"children": [
				0,
				{
					"name": "netherwart",
					"origin": [4, 0, 7],
					"color": 0,
					"children": [1, 2, 3, 4, 5, 6]
				},
				{
					"name": "bones",
					"origin": [14, 0, 8],
					"color": 0,
					"children": [7, 8, 9, 10]
				},
				{
					"name": "magma",
					"origin": [8, 8, 8],
					"color": 0,
					"children": [11, 12, 13]
				}
			]
		}
	]
}