{
	"format_version": "1.8.0",
	"animations": {
		"animation.sobble.ground_idle": {
			"loop": true,
			"bones": {
				"torso": {
					"rotation": [-10, 0, 0]
				},
				"neck": {
					"rotation": [-2.5, 0, 0]
				},
				"head": {
					"rotation": [-5, 0, 0]
				},
				"arm_left": {
					"rotation": [-12.12485, 31.1736, 45.64668]
				},
				"arm_left2": {
					"rotation": [0, 5, 12.5]
				},
				"hand_left": {
					"rotation": [0, 0, 42.5]
				},
				"hand_left2": {
					"rotation": [0, 0, -27.5]
				},
				"arm_right": {
					"rotation": [-16.35476, -21.33637, -46.20106]
				},
				"arm_right2": {
					"rotation": [0, -5, -20]
				},
				"hand_right": {
					"rotation": [0, 0, -27.5]
				},
				"hand_right2": {
					"rotation": [0, 0, 27.5]
				},
				"tail": {
					"rotation": [17.18821, 9.23186, -3.86032]
				},
				"tail2": {
					"rotation": [0, 17.5, 0]
				},
				"body": {
					"rotation": [27.5, 0, 0],
					"position": [0, 0.2, 0]
				},
				"leg_left": {
					"rotation": [-35.10492, 18.34824, -41.23346]
				},
				"leg_left3": {
					"rotation": [0, 0, 60]
				},
				"feet_left": {
					"rotation": [0, 0, 5]
				},
				"leg_left2": {
					"rotation": [0, 0, 52.5]
				},
				"leg_right": {
					"rotation": [-33.59708, -16.66017, 39.62535]
				},
				"leg_right2": {
					"rotation": [0, 0, -52.5]
				},
				"leg_right3": {
					"rotation": [0, 0, -60]
				},
				"feet_right": {
					"rotation": [0, 0, -5]
				},
				"tear_left": {
					"position": [0, 0, 0.1]
				},
				"tear_left2": {
					"position": [0, 2, 0]
				},
				"tear_left3": {
					"position": [0, 2, 0]
				},
				"tear_left4": {
					"position": [0, 2, 0]
				},
				"tear_left5": {
					"position": [0, 2, 0]
				},
				"tear_right": {
					"position": [0, 0, 0.1]
				},
				"tear_right2": {
					"position": [0, 2, 0]
				},
				"tear_right3": {
					"position": [0, 2, 0]
				},
				"tear_right4": {
					"position": [0, 2, 0]
				},
				"tear_right5": {
					"position": [0, 2, 0]
				}
			}
		},
		"animation.sobble.blink": {
			"animation_length": 0.16667,
			"bones": {
				"eyelid_left": {
					"position": {
						"0.0": [0, 0, -0.1],
						"0.125": [0, 0, -0.1],
						"0.1667": [0, 0, 0]
					}
				},
				"eyelid_right": {
					"position": {
						"0.0": [0, 0, -0.1],
						"0.125": [0, 0, -0.1],
						"0.1667": [0, 0, 0.1]
					}
				}
			}
		}
	}
}