{
	"format_version": "1.12.0",
	"minecraft:geometry": [
		{
			"description": {
				"identifier": "geometry.braixen",
				"texture_width": 128,
				"texture_height": 64,
				"visible_bounds_width": 4,
				"visible_bounds_height": 4.5,
				"visible_bounds_offset": [0, 1.75, 0]
			},
			"bones": [
				{
					"name": "braixen",
					"pivot": [0, 0, 0]
				},
				{
					"name": "body",
					"parent": "braixen",
					"pivot": [0, 0, 0]
				},
				{
					"name": "torso_bottom",
					"parent": "body",
					"pivot": [0, 15.5, -1],
					"cubes": [
						{"origin": [-3.5, 14.5, -4], "size": [7, 3, 6], "inflate": 0.01, "uv": [42, 6]}
					]
				},
				{
					"name": "torso_top",
					"parent": "torso_bottom",
					"pivot": [0, 17.5, -1],
					"cubes": [
						{"origin": [-2, 16.5, -3], "size": [4, 6, 4], "uv": [62, 15]}
					]
				},
				{
					"name": "chest",
					"parent": "torso_top",
					"pivot": [0, 22.5, 1],
					"cubes": [
						{"origin": [-3, 22.5, -3], "size": [6, 4, 4], "uv": [108, 25]}
					]
				},
				{
					"name": "neck",
					"parent": "chest",
					"pivot": [0, 26.5, -1],
					"cubes": [
						{"origin": [-1, 25.5, -2], "size": [2, 4, 2], "uv": [96, 19]}
					]
				},
				{
					"name": "head",
					"parent": "neck",
					"pivot": [0, 28.5, -1],
					"cubes": [
						{"origin": [-4, 28.5, -5.25], "size": [8, 7, 8], "uv": [0, 21]},
						{"origin": [2, 30.75, -5.25], "size": [2, 3, 3], "inflate": 0.01, "uv": [97, 50]},
						{"origin": [-4, 30.75, -5.25], "size": [2, 3, 3], "inflate": 0.01, "uv": [97, 44], "mirror": true}
					]
				},
				{
					"name": "eyes",
					"parent": "head",
					"pivot": [0, 31.75, -3.75]
				},
				{
					"name": "eye_right",
					"parent": "eyes",
					"pivot": [-3, 31.75, -3.75],
					"cubes": [
						{"origin": [-4, 30.25, -5.25], "size": [2, 3, 3], "inflate": 0.02, "uv": [86, 47], "mirror": true},
						{"origin": [-3.1, 30.25, -5.25], "size": [1, 3, 0], "inflate": 0.03, "uv": [87, 47], "mirror": true}
					]
				},
				{
					"name": "eyelid_right",
					"parent": "eye_right",
					"pivot": [-2.9, 32.25, -3.65],
					"cubes": [
						{"origin": [-3.9, 30.25, -5.15], "size": [2, 4, 3], "inflate": 0.04, "uv": [109, 54], "mirror": true}
					]
				},
				{
					"name": "eye_left",
					"parent": "eyes",
					"pivot": [3, 31.75, -3.75],
					"cubes": [
						{"origin": [2, 30.25, -5.25], "size": [2, 3, 3], "inflate": 0.02, "uv": [97, 56]},
						{"origin": [2.1, 30.25, -5.25], "size": [1, 3, 0], "inflate": 0.03, "uv": [85, 47]}
					]
				},
				{
					"name": "eyelid_left",
					"parent": "eye_left",
					"pivot": [2.9, 32.25, -3.65],
					"cubes": [
						{"origin": [1.9, 30.25, -5.15], "size": [2, 4, 3], "inflate": 0.04, "uv": [109, 47]}
					]
				},
				{
					"name": "muzzle",
					"parent": "head",
					"pivot": [0, 28.75, -5.25],
					"rotation": [-2.5, 0, 0],
					"cubes": [
						{"origin": [-2, 28.75, -7], "size": [4, 3, 2], "uv": [92, 25]}
					]
				},
				{
					"name": "muzzle2",
					"parent": "muzzle",
					"pivot": [0, 28.75, -7],
					"rotation": [-5, 0, 0],
					"cubes": [
						{"origin": [-1.5, 28.75, -9], "size": [3, 3, 2], "uv": [74, 0]}
					]
				},
				{
					"name": "nose",
					"parent": "muzzle2",
					"pivot": [0, 30, -9],
					"rotation": [-5, 0, 0],
					"cubes": [
						{"origin": [-1, 30, -10.5], "size": [2, 2, 2], "uv": [58, 15]}
					]
				},
				{
					"name": "head_ruff_right",
					"parent": "head",
					"pivot": [-4, 28.6, -1.75],
					"rotation": [0, 12.5, 7.5],
					"cubes": [
						{"origin": [-10, 28.6, -1.75], "size": [6, 4, 0], "uv": [86, 15]}
					]
				},
				{
					"name": "head_ruff_left",
					"parent": "head",
					"pivot": [4, 28.6, -1.75],
					"rotation": [0, -12.5, -7.5],
					"cubes": [
						{"origin": [4, 28.6, -1.75], "size": [6, 4, 0], "uv": [98, 15]}
					]
				},
				{
					"name": "ear_right_main",
					"parent": "head",
					"pivot": [-1.25, 35.5, -1.6]
				},
				{
					"name": "ear_right",
					"parent": "ear_right_main",
					"pivot": [-1, 35.5, -1.6],
					"rotation": [-5, -25.5, -17.5],
					"cubes": [
						{"origin": [-1, 34.5, -2.6], "size": [0, 12, 6], "uv": [116, 27]},
						{"origin": [-4, 34.5, -2.6], "size": [3, 12, 0], "pivot": [-1, 40.5, -2.6], "rotation": [0, -15, 0], "uv": [86, 24]}
					]
				},
				{
					"name": "ear_ruff_right",
					"parent": "ear_right_main",
					"pivot": [-4.5, 36, -1.25],
					"rotation": [-1.5, -5, -5],
					"cubes": [
						{"origin": [-12, 33.5, -2.75], "size": [9, 5, 4], "uv": [26, 40]}
					]
				},
				{
					"name": "ear_ruff_side_right",
					"parent": "ear_ruff_right",
					"pivot": [-4, 38.5, -1],
					"rotation": [0, -5, 20],
					"cubes": [
						{"origin": [-10, 36.5, -1], "size": [6, 3, 0], "uv": [104, 33]}
					]
				},
				{
					"name": "ear_ruff_right2",
					"parent": "ear_ruff_right",
					"pivot": [-12, 33.5, -0.25],
					"rotation": [0, 0, 50],
					"cubes": [
						{"origin": [-19, 33.5, -2.25], "size": [7, 5, 3], "uv": [55, 32]}
					]
				},
				{
					"name": "ear_ruff_right3",
					"parent": "ear_ruff_right2",
					"pivot": [-19, 33.5, -0.25],
					"rotation": [0, 0, 25],
					"cubes": [
						{"origin": [-25, 33.5, -0.25], "size": [7, 6, 0], "uv": [96, 1]}
					]
				},
				{
					"name": "ear_left_main",
					"parent": "head",
					"pivot": [1.25, 35.5, -1.6]
				},
				{
					"name": "ear_left",
					"parent": "ear_left_main",
					"pivot": [1, 35.5, -1.6],
					"rotation": [-5, 25.5, 17.5],
					"cubes": [
						{"origin": [1, 34.5, -2.6], "size": [0, 12, 6], "uv": [38, 46]},
						{"origin": [1, 34.5, -2.6], "size": [3, 12, 0], "pivot": [1, 40.5, -2.6], "rotation": [0, 15, 0], "uv": [110, 1]}
					]
				},
				{
					"name": "ear_ruff_left",
					"parent": "ear_left_main",
					"pivot": [4.5, 36, -1.25],
					"rotation": [-1.5, 5, 5],
					"cubes": [
						{"origin": [3, 33.5, -2.75], "size": [9, 5, 4], "uv": [0, 36]}
					]
				},
				{
					"name": "ear_ruff_side_left",
					"parent": "ear_ruff_left",
					"pivot": [4, 38.5, -1],
					"rotation": [0, 5, -20],
					"cubes": [
						{"origin": [4, 36.5, -1], "size": [6, 3, 0], "uv": [32, 49]}
					]
				},
				{
					"name": "ear_ruff_left2",
					"parent": "ear_ruff_left",
					"pivot": [12, 33.5, -0.25],
					"rotation": [0, 0, -50],
					"cubes": [
						{"origin": [12, 33.5, -2.25], "size": [7, 5, 3], "uv": [50, 52]}
					]
				},
				{
					"name": "ear_ruff_left3",
					"parent": "ear_ruff_left2",
					"pivot": [19, 33.5, -0.25],
					"rotation": [0, 0, -25],
					"cubes": [
						{"origin": [18, 33.5, -0.25], "size": [7, 6, 0], "uv": [68, 9]}
					]
				},
				{
					"name": "arm_right",
					"parent": "chest",
					"pivot": [-3, 26, -1],
					"cubes": [
						{"origin": [-8, 25, -2], "size": [5, 1, 2], "inflate": 0.01, "uv": [50, 60]}
					]
				},
				{
					"name": "arm_right2",
					"parent": "arm_right",
					"pivot": [-8, 25.5, 0],
					"cubes": [
						{"origin": [-13, 25, -2], "size": [5, 1, 2], "uv": [70, 53]}
					]
				},
				{
					"name": "hand_right",
					"parent": "arm_right2",
					"pivot": [-13, 25.5, -1],
					"cubes": [
						{"origin": [-17, 25, -2.5], "size": [4, 1, 3], "inflate": 0.01, "uv": [68, 25]}
					]
				},
				{
					"name": "hand_stick",
					"parent": "hand_right",
					"pivot": [-18.5, 25.5, -1],
					"cubes": [
						{"origin": [-19, 25, -14], "size": [1, 1, 19], "inflate": 0.01, "uv": [88, 44]},
						{"origin": [-18.5, 22.5, -21], "size": [0, 6, 10], "uv": [70, 46]},
						{"origin": [-18.5, 22.5, -21], "size": [0, 6, 10], "pivot": [-18.5, 25.5, -16], "rotation": [0, 0, -90], "uv": [70, 46]},
						{"origin": [-19, 25, 0.5], "size": [1, 1, 4], "pivot": [-19, 25.5, 0.5], "rotation": [0, -35, 0], "uv": [118, 58]}
					]
				},
				{
					"name": "arm_left",
					"parent": "chest",
					"pivot": [3, 26, -1],
					"cubes": [
						{"origin": [3, 25, -2], "size": [5, 1, 2], "inflate": 0.01, "uv": [68, 29]}
					]
				},
				{
					"name": "arm_left2",
					"parent": "arm_left",
					"pivot": [8, 25.5, 0],
					"cubes": [
						{"origin": [8, 25, -2], "size": [5, 1, 2], "uv": [42, 18]}
					]
				},
				{
					"name": "hand_left",
					"parent": "arm_left2",
					"pivot": [13, 25.5, -1],
					"cubes": [
						{"origin": [13, 25, -2.5], "size": [4, 1, 3], "inflate": 0.01, "uv": [67, 49]}
					]
				},
				{
					"name": "chest_ruff_front",
					"parent": "chest",
					"pivot": [0, 25.15, -3],
					"rotation": [-27.5, 0, 0],
					"cubes": [
						{"origin": [-1.5, 22.15, -4], "size": [3, 3, 2], "uv": [74, 38]}
					]
				},
				{
					"name": "chest_ruff_front2",
					"parent": "chest_ruff_front",
					"pivot": [0, 22.15, -3.75],
					"rotation": [35, 0, 0],
					"cubes": [
						{"origin": [-1, 20.15, -3.75], "size": [2, 2, 2], "uv": [104, 25]}
					]
				},
				{
					"name": "chest_ruff_back",
					"parent": "chest",
					"pivot": [0, 25.25, 1],
					"rotation": [27.5, 0, 0],
					"cubes": [
						{"origin": [-1.5, 22.25, 0], "size": [3, 3, 2], "uv": [94, 7]}
					]
				},
				{
					"name": "chest_ruff_back2",
					"parent": "chest_ruff_back",
					"pivot": [0, 22.25, 1.75],
					"rotation": [-35, 0, 0],
					"cubes": [
						{"origin": [-1, 20.25, -0.25], "size": [2, 2, 2], "uv": [74, 15]}
					]
				},
				{
					"name": "chest_ruff_right",
					"parent": "chest",
					"pivot": [0.5, 26.5, -1],
					"rotation": [0, 0, 5],
					"cubes": [
						{"origin": [-4.5, 26.5, -3], "size": [5, 0, 4], "uv": [80, 43]},
						{"origin": [-4.5, 21.5, -3], "size": [5, 5, 0], "pivot": [0.5, 26.5, -3], "rotation": [-10, 0, 0], "uv": [86, 19]},
						{"origin": [-4.5, 21.5, 1], "size": [5, 5, 0], "pivot": [0.5, 26.5, 1], "rotation": [10, 0, 0], "uv": [118, 45]},
						{"origin": [-5.5, 26.5, -3], "size": [1, 0, 4], "pivot": [-4.5, 26.5, -1], "rotation": [0, 0, 40], "uv": [2, 0]}
					]
				},
				{
					"name": "chest_ruff_left",
					"parent": "chest",
					"pivot": [-0.5, 26.5, -1],
					"rotation": [0, 0, -5],
					"cubes": [
						{"origin": [-0.5, 26.5, -3], "size": [5, 0, 4], "uv": [80, 39]},
						{"origin": [-0.5, 21.5, -3], "size": [5, 5, 0], "pivot": [-0.5, 26.5, -3], "rotation": [-10, 0, 0], "uv": [84, 9]},
						{"origin": [-0.5, 21.5, 1], "size": [5, 5, 0], "pivot": [-0.5, 26.5, 1], "rotation": [10, 0, 0], "uv": [75, 32]},
						{"origin": [4.5, 26.5, -3], "size": [1, 0, 4], "pivot": [4.5, 26.5, -1], "rotation": [0, 0, -40], "uv": [0, 0]}
					]
				},
				{
					"name": "skirt",
					"parent": "torso_bottom",
					"pivot": [0, 20.25, -1]
				},
				{
					"name": "skirt_right",
					"parent": "skirt",
					"pivot": [-2, 20.25, -1],
					"rotation": [0, 0, -50],
					"cubes": [
						{"origin": [-5, 20.25, -4.5], "size": [3, 0, 7], "uv": [55, 0]}
					]
				},
				{
					"name": "skirt_right2",
					"parent": "skirt_right",
					"pivot": [-5, 20.25, -1],
					"rotation": [0, 0, 30],
					"cubes": [
						{"origin": [-10, 17.25, -4.5], "size": [5, 3, 7], "uv": [45, 42]}
					]
				},
				{
					"name": "skirt_right3",
					"parent": "skirt_right2",
					"pivot": [-10, 18, -1],
					"rotation": [0, 0, 50],
					"cubes": [
						{"origin": [-13, 18, -4], "size": [3, 2, 6], "uv": [62, 1]}
					]
				},
				{
					"name": "skirt_front",
					"parent": "skirt",
					"pivot": [0, 20.25, -3],
					"rotation": [57.5, 0, 0],
					"cubes": [
						{"origin": [-4, 20.25, -6], "size": [8, 0, 3], "uv": [39, 15]}
					]
				},
				{
					"name": "skirt_front2",
					"parent": "skirt_front",
					"pivot": [0, 20.25, -6],
					"rotation": [20, 0, 0],
					"cubes": [
						{"origin": [-7, 20.25, -12], "size": [14, 0, 6], "uv": [26, 0]}
					]
				},
				{
					"name": "skirt_left",
					"parent": "skirt",
					"pivot": [2, 20.25, -1],
					"rotation": [0, 0, 50],
					"cubes": [
						{"origin": [2, 20.25, -4.5], "size": [3, 0, 7], "uv": [10, 45]}
					]
				},
				{
					"name": "skirt_left2",
					"parent": "skirt_left",
					"pivot": [5, 20.25, -1],
					"rotation": [0, 0, -30],
					"cubes": [
						{"origin": [5, 17.25, -4.5], "size": [5, 3, 7], "uv": [0, 45]}
					]
				},
				{
					"name": "skirt_left3",
					"parent": "skirt_left2",
					"pivot": [10, 18, -1],
					"rotation": [0, 0, -50],
					"cubes": [
						{"origin": [10, 18, -4], "size": [3, 2, 6], "uv": [98, 36]}
					]
				},
				{
					"name": "skirt_back",
					"parent": "skirt",
					"pivot": [0, 20.25, 1],
					"rotation": [-60, 0, 0],
					"cubes": [
						{"origin": [-4, 20.25, 1], "size": [8, 0, 3], "uv": [29, 6]}
					]
				},
				{
					"name": "skirt_back2",
					"parent": "skirt_back",
					"pivot": [0, 20.25, 4],
					"rotation": [-15, 0, 0],
					"cubes": [
						{"origin": [-7, 20.25, 4], "size": [14, 0, 6], "uv": [18, 21]}
					]
				},
				{
					"name": "tail",
					"parent": "torso_bottom",
					"pivot": [0, 15.5, 2],
					"rotation": [5, 0, 0],
					"cubes": [
						{"origin": [-5.5, 9, 1.5], "size": [11, 11, 10], "uv": [0, 0]},
						{"origin": [1, 20, 6.75], "size": [0, 3, 3], "pivot": [1, 20, 8.75], "rotation": [0, 0, 25], "uv": [42, 6]},
						{"origin": [-1, 20, 6.75], "size": [0, 3, 3], "pivot": [-1, 20, 8.75], "rotation": [0, 0, -22.5], "uv": [0, 42]},
						{"origin": [-1.25, 20, 9.25], "size": [3, 3, 0], "pivot": [0.75, 20, 9.25], "rotation": [-27.5, 0, 0], "uv": [48, 32]},
						{"origin": [-1.25, 20, 7.25], "size": [3, 3, 0], "pivot": [0.75, 20, 7.25], "rotation": [17.5, 0, 0], "uv": [0, 48]}
					]
				},
				{
					"name": "stick_tail",
					"parent": "tail",
					"pivot": [0, 20, 8.25],
					"rotation": [-12.5, 0, 0],
					"cubes": [
						{"origin": [-0.5, 18, 7.75], "size": [1, 14, 1], "inflate": 0.01, "uv": [124, 0]},
						{"origin": [-0.5, 27.5, 7.75], "size": [1, 4, 1], "pivot": [0, 27.5, 7.75], "rotation": [35, 0, 0], "uv": [0, 55]}
					]
				},
				{
					"name": "tail2",
					"parent": "tail",
					"pivot": [0, 9, 3.75],
					"rotation": [10, 0, 0],
					"cubes": [
						{"origin": [-4, 5, 3.75], "size": [8, 4, 7], "uv": [25, 29]}
					]
				},
				{
					"name": "tail3",
					"parent": "tail2",
					"pivot": [0, 5, 6],
					"rotation": [20, 0, 0],
					"cubes": [
						{"origin": [-2, 2, 6], "size": [4, 3, 4], "uv": [62, 40]}
					]
				},
				{
					"name": "tail4",
					"parent": "tail3",
					"pivot": [0, 2, 6.25],
					"rotation": [30, 0, 0],
					"cubes": [
						{"origin": [0, -2, 6.25], "size": [0, 4, 4], "uv": [0, 0]}
					]
				},
				{
					"name": "leg_right",
					"parent": "body",
					"pivot": [-2, 15.5, -1],
					"rotation": [0, 0, 5],
					"cubes": [
						{"origin": [-4, 11, -4], "size": [4, 5, 6], "uv": [48, 21]}
					]
				},
				{
					"name": "leg_right2",
					"parent": "leg_right",
					"pivot": [-2, 11, -3],
					"rotation": [22.5, 0, 0],
					"cubes": [
						{"origin": [-3.5, 6, -3], "size": [3, 6, 3], "uv": [92, 30]}
					]
				},
				{
					"name": "leg_right3",
					"parent": "leg_right2",
					"pivot": [-1.5, 6, -0.25],
					"rotation": [-27.5, 0, -5],
					"cubes": [
						{"origin": [-3, 0, -2.25], "size": [2, 6, 2], "uv": [0, 21]}
					]
				},
				{
					"name": "leg_right4",
					"parent": "leg_right3",
					"pivot": [-2, 0, -0.25],
					"rotation": [52.5, 0, 0],
					"cubes": [
						{"origin": [-3, 0, -2.25], "size": [2, 2, 2], "inflate": 0.01, "uv": [104, 21]}
					]
				},
				{
					"name": "leg_right5",
					"parent": "leg_right4",
					"pivot": [-2, 0, -2.25],
					"rotation": [-47.5, 0, 0],
					"cubes": [
						{"origin": [-3, 0, -5.25], "size": [2, 2, 3], "uv": [75, 44]}
					]
				},
				{
					"name": "leg_left",
					"parent": "body",
					"pivot": [2, 15.5, -1],
					"rotation": [0, 0, -5],
					"cubes": [
						{"origin": [0, 11, -4], "size": [4, 5, 6], "uv": [18, 49]}
					]
				},
				{
					"name": "leg_left2",
					"parent": "leg_left",
					"pivot": [2, 11, -3],
					"rotation": [22.5, 0, 0],
					"cubes": [
						{"origin": [0.5, 6, -3], "size": [3, 6, 3], "uv": [84, 0]}
					]
				},
				{
					"name": "leg_left3",
					"parent": "leg_left2",
					"pivot": [1.5, 6, -0.25],
					"rotation": [-27.5, 0, 5],
					"cubes": [
						{"origin": [1, 0, -2.25], "size": [2, 6, 2], "uv": [110, 15]}
					]
				},
				{
					"name": "leg_left4",
					"parent": "leg_left3",
					"pivot": [2, 0, -0.25],
					"rotation": [52.5, 0, 0],
					"cubes": [
						{"origin": [1, 0, -2.25], "size": [2, 2, 2], "inflate": 0.01, "uv": [78, 19]}
					]
				},
				{
					"name": "foot_left",
					"parent": "leg_left4",
					"pivot": [2, 0, -2.25],
					"rotation": [-47.5, 0, 0],
					"cubes": [
						{"origin": [1, 0, -5.25], "size": [2, 2, 3], "uv": [101, 10]}
					]
				}
			]
		}
	]
}