{
	"format_version": "1.8.0",
	"animations": {
		"animation.delphox.idle": {
			"loop": true,
			"bones": {
				"head": {
					"rotation": [2.5, 0, 0]
				},
				"ear_ruff_top_right": {
					"rotation": [0, 0, 5]
				},
				"ear_ruff_top_right2": {
					"rotation": [0, 0, -10]
				},
				"ear_ruff_top_right3": {
					"rotation": [0, 0, 10]
				},
				"ear_ruff_middle_right": {
					"rotation": [0, 0, -2.5]
				},
				"ear_ruff_middle_right2": {
					"rotation": [0, 0, 5]
				},
				"ear_ruff_middle_right3": {
					"rotation": [0, 0, 7.5]
				},
				"ear_ruff_bottom_right": {
					"rotation": [0, 0, -5]
				},
				"ear_ruff_bottom_right2": {
					"rotation": [0, 0, 12.5]
				},
				"ear_ruff_bottom_right3": {
					"rotation": [0, 0, 12.5]
				},
				"ear_ruff_top_left": {
					"rotation": [0, 0, -5]
				},
				"ear_ruff_top_left2": {
					"rotation": [0, 0, 10]
				},
				"ear_ruff_top_left3": {
					"rotation": [0, 0, -10]
				},
				"ear_ruff_middle_left": {
					"rotation": [0, 0, 2.5]
				},
				"ear_ruff_middle_left2": {
					"rotation": [0, 0, -5]
				},
				"ear_ruff_middle_left3": {
					"rotation": [0, 0, -7.5]
				},
				"ear_ruff_bottom_left": {
					"rotation": [0, 0, 5]
				},
				"ear_ruff_bottom_left2": {
					"rotation": [0, 0, -12.5]
				},
				"ear_ruff_bottom_left3": {
					"rotation": [0, 0, 12.5]
				},
				"arm_right": {
					"rotation": [0, 0, -60]
				},
				"arm_right2": {
					"rotation": [1.3378, -14.94159, -5.17544]
				},
				"hand_right": {
					"rotation": [0, 0, -5]
				},
				"finger_index_right": {
					"rotation": [0, 0, -17.5]
				},
				"finger_middle_right": {
					"rotation": [0, 0, -10]
				},
				"finger_ring_right": {
					"rotation": [0, 0, -2.5]
				},
				"arm_left": {
					"rotation": [0, 0, 60]
				},
				"arm_left2": {
					"rotation": [1.3378, 14.94159, 5.17544]
				},
				"hand_left": {
					"rotation": [0, 0, 5]
				},
				"finger_index_left": {
					"rotation": [0, 0, 15]
				},
				"finger_middle_left": {
					"rotation": [0, 0, 10]
				},
				"finger_ring_left": {
					"rotation": [0, 0, 5]
				},
				"tail": {
					"rotation": [-15, 0, 0]
				},
				"tail2": {
					"rotation": [12.5, 0, 0]
				},
				"tail3": {
					"rotation": [15, 0, 0]
				},
				"tail4": {
					"rotation": [15, 0, 0]
				},
				"tail5": {
					"rotation": [12.5, 0, 0]
				},
				"leg_right": {
					"rotation": [0, 7.5, 0]
				},
				"leg_left": {
					"rotation": [0, -7.5, 0]
				}
			}
		},
		"animation.delphox.blink": {
			"animation_length": 0.1667,
			"bones": {
				"eyelid_left": {
					"position": {
						"0.0": [0.1, 0, -0.1],
						"0.12": [0.1, 0, -0.1],
						"0.16": [0, 0, 0]
					}
				},
				"eyelid_right": {
					"position": {
						"0.0": [-0.1, 0, -0.1],
						"0.12": [-0.1, 0, -0.1],
						"0.16": [0, 0, 0]
					}
				}
			}
		}
	}
}