{
	"credit": "Made with Blockbench by dhi_holo @holo_modeller",
	"textures": {
		"particle": "block/stripped_oak_log"
	},
	"elements": [
		{
			"from": [0, 13, 0],
			"to": [16, 16, 16],
			"faces": {
				"north": {"uv": [13, 0, 16, 16], "rotation": 270, "texture": "#particle"},
				"east": {"uv": [13, 0, 16, 16], "rotation": 270, "texture": "#particle"},
				"south": {"uv": [13, 0, 16, 16], "rotation": 270, "texture": "#particle"},
				"west": {"uv": [13, 0, 16, 16], "rotation": 270, "texture": "#particle"},
				"up": {"uv": [0, 0, 16, 16], "texture": "#particle"},
				"down": {"uv": [0, 0, 16, 16], "rotation": 180, "texture": "#particle"}
			}
		}
	]
}