{
	"format_version": "1.8.0",
	"animations": {
		"animation.blaziken.ground_idle": {
			"loop": true,
			"bones": {
				"arm_right": {
					"rotation": [30, 15, -50]
				},
				"forearm_right": {
					"rotation": [0, -45, 0]
				},
				"arm_left": {
					"rotation": [30, -15, 50]
				},
				"forearm_left": {
					"rotation": [0, 45, 0]
				},
				"tail1": {
					"rotation": [-10, 0, 0]
				},
				"tail2": {
					"rotation": [10, 0, 0]
				},
				"tail3": {
					"rotation": [10, 0, 0]
				}
			}
		},
		"animation.blaziken.blink": {
			"animation_length": 0.1667,
			"bones": {
				"eyelid_right": {
					"position": {
						"0.0": [-0.25, 0, -0.1],
						"0.125": [-0.25, 0, -0.1],
						"0.1667": [0, 0, 0]
					}
				},
				"eyelid_left": {
					"position": {
						"0.0": [0.25, 0, -0.1],
						"0.0833": [0.25, 0, -0.1],
						"0.125": [0.25, 0, 0],
						"0.1667": [0, 0, 0]
					}
				}
			}
		}
	}
}