{
	"format_version": "1.8.0",
	"animations": {
		"animation.scorbunny.ground_idle": {
			"loop": true,
			"bones": {
				"tail": {
					"rotation": [12.5, 0, 0]
				},
				"tail2": {
					"rotation": [12.5, 0, 0]
				},
				"arm_right": {
					"rotation": [0, 0, -37.5]
				},
				"arm_right2": {
					"rotation": [0, -25, 0]
				},
				"finger_right": {
					"rotation": [0, 0, -20]
				},
				"finger_right2": {
					"rotation": [20, 0, 0]
				},
				"arm_left": {
					"rotation": [0, 0, 37.5]
				},
				"arm_left2": {
					"rotation": [0, 25, 0]
				},
				"finger_left": {
					"rotation": [0, 0, 20]
				},
				"finger_left2": {
					"rotation": [20, 0, 0]
				},
				"hand_left": {
					"rotation": [0, 17.5, 0]
				},
				"hand_right": {
					"rotation": [0, -17.5, 0]
				},
				"leg_left": {
					"rotation": [0, -7.5, 0]
				},
				"leg_right": {
					"rotation": [0, 7.5, 0]
				},
				"finger_left3": {
					"rotation": [0, 0, 20]
				},
				"finger_right3": {
					"rotation": [0, 0, -20]
				}
			}
		},
		"animation.scorbunny.pose": {
			"loop": true,
			"bones": {
				"ear_left": {
					"rotation": [-22.5, 0, -2.5]
				},
				"ear_left2": {
					"rotation": [-5, 0, 0]
				},
				"ear_right": {
					"rotation": [-10, 0, -12.5]
				},
				"ear_right2": {
					"rotation": [-20, 0, 0]
				},
				"head": {
					"rotation": [-12.5, -17.5, 0]
				},
				"mouth_closed": {
					"position": [0, 0.1, 0.1]
				},
				"hair_left": {
					"rotation": [11.26653, -25.25199, -25.03149]
				},
				"hair_right": {
					"rotation": [8.89674, 26.12797, 19.56838]
				},
				"neck": {
					"rotation": [12.45392, 1.08089, -4.88206]
				},
				"leg_right": {
					"rotation": [-25, 32.5, 0]
				},
				"leg_right2": {
					"rotation": [47.5, 0, 0]
				},
				"toe_right": {
					"rotation": [-20, 0, 0]
				},
				"tail": {
					"rotation": [-17.89807, 11.91276, -3.81397]
				},
				"leg_left": {
					"rotation": [-37.70443, -30.57768, -10.68159]
				},
				"leg_left2": {
					"rotation": [7.5, 0, 0]
				},
				"toe_left": {
					"rotation": [0, 0, 0]
				},
				"arm_left": {
					"rotation": [12.45891, 27.51235, 25.56145]
				},
				"hand_left": {
					"rotation": [0, 22.5, 0]
				},
				"arm_right": {
					"rotation": [-46.58209, -28.9618, 16.27053]
				},
				"hand_right": {
					"rotation": [0, -15, 0]
				},
				"body": {
					"position": [0, 0.75, 0]
				},
				"mouth_open": {
					"position": [0, -0.1, -0.1]
				}
			}
		},
		"animation.scorbunny.blink": {
			"animation_length": 0.16667,
			"bones": {
				"eyelid_right": {
					"position": {
						"0.0": [0, 0, -0.1],
						"0.125": [0, 0, -0.1],
						"0.1667": [0, 0, 0]
					}
				},
				"eyelid_left": {
					"position": {
						"0.0": [0, 0, -0.1],
						"0.125": [0, 0, -0.1],
						"0.1667": [0, 0, 0]
					}
				}
			}
		},
		"animation.scorbunny.cry": {
			"animation_length": 1.5,
			"bones": {
				"neck": {
					"rotation": {
						"0.0": [0, 0, 0],
						"0.25": [10, 0, 0],
						"1.25": [10, 0, 0],
						"1.5": [0, 0, 0]
					}
				},
				"mouth": {
					"position": {
						"0.0": [0, 0, 0],
						"0.25": [0, -2, 0],
						"1.25": [0, -2, 0],
						"1.5": [0, 0, 0]
					}
				},
				"mouth2": {
					"position": {
						"0.0": [0, 0, 0],
						"0.25": [0, -5, 0],
						"1.25": [0, -5, 0],
						"1.5": [0, 0, 0]
					}
				},
				"jaw": {
					"position": {
						"0.0": [0, 0, 0],
						"0.25": [0, -3, 0],
						"1.25": [0, -3, 0],
						"1.5": [0, 0, 0]
					}
				},
				"head": {
					"rotation": {
						"0.0": [0, 0, 0],
						"0.25": [-15, 0, 0],
						"1.25": [-15, 0, 0],
						"1.5": [0, 0, 0]
					}
				},
				"head2": {
					"rotation": {
						"0.0": [0, 0, 0],
						"0.25": [-15, 0, 0],
						"1.25": [-15, 0, 0],
						"1.5": [0, 0, 0]
					}
				},
				"mouth_closed2": {
					"position": {
						"0.25": [0, 0, -0.1],
						"0.3333": [0, 0, 0],
						"1.1667": [0, 0, 0],
						"1.25": [0, 0, -0.1]
					}
				},
				"mouth_open2": {
					"position": {
						"0.0": [0, 0, 0.1],
						"0.25": [0, 0, 0],
						"1.25": [0, 0, 0],
						"1.5": [0, 0, 0.1]
					}
				},
				"head3": {
					"rotation": {
						"0.0": [0, 0, 0],
						"0.25": [-15, 0, 0],
						"1.25": [-15, 0, 0],
						"1.5": [0, 0, 0]
					}
				},
				"mouth_closed3": {
					"position": {
						"0.25": [0, 0, -0.1],
						"0.3333": [0, 0, 0],
						"1.1667": [0, 0, 0],
						"1.25": [0, 0, -0.1]
					}
				},
				"mouth_open3": {
					"position": {
						"0.0": [0, 0, 0.1],
						"0.25": [0, 0, 0],
						"1.25": [0, 0, 0],
						"1.5": [0, 0, 0.1]
					}
				},
				"mouth_closed": {
					"position": {
						"0.25": [0, 0, 0],
						"0.3333": [0, 0, 0.1],
						"1.1667": [0, 0, 0.1],
						"1.25": [0, 0, 0]
					}
				},
				"mouth_open": {
					"position": {
						"0.0": [0, 0, 0],
						"0.25": [0, 0, -0.1],
						"1.25": [0, 0, -0.1],
						"1.5": [0, 0, 0]
					}
				}
			}
		}
	}
}