{
	"format_version": "1.8.0",
	"animations": {
		"animation.joltik.idle": {
			"loop": true
		},
		"animation.joltik.cry": {
			"animation_length": 1.5,
			"bones": {
				"torso": {
					"rotation": {
						"0.0": [0, 0, 0],
						"0.25": [-7.5, 0, 0],
						"1.25": [-7.5, 0, 0],
						"1.5": [0, 0, 0]
					}
				},
				"fangs": {
					"rotation": {
						"0.0": [0, 0, 0],
						"0.25": [-7.5, 0, 0],
						"1.25": [-7.5, 0, 0],
						"1.5": [0, 0, 0]
					}
				},
				"leg_front_right": {
					"rotation": {
						"0.0": [0, 0, 0],
						"0.25": [7.5, 0, 0],
						"1.25": [7.5, 0, 0],
						"1.5": [0, 0, 0]
					},
					"position": {
						"0.0": [0, 0, 0],
						"0.25": [0, -0.28049, -0.21523],
						"1.25": [0, -0.28049, -0.21523],
						"1.5": [0, 0, 0]
					}
				},
				"leg_front_left": {
					"rotation": {
						"0.0": [0, 0, 0],
						"0.25": [7.5, 0, 0],
						"1.25": [7.5, 0, 0],
						"1.5": [0, 0, 0]
					},
					"position": {
						"0.0": [0, 0, 0],
						"0.25": [0, -0.28049, -0.21523],
						"1.25": [0, -0.28049, -0.21523],
						"1.5": [0, 0, 0]
					}
				},
				"leg_back_left": {
					"rotation": [0, 0, 0]
				},
				"fang_left": {
					"rotation": {
						"0.0": [0, 0, 0],
						"0.0833": [0, 0, 5],
						"0.1667": [0, 0, 0],
						"0.25": [0, 0, -5],
						"0.3333": [0, 0, 0],
						"0.4167": [0, 0, 5],
						"0.5": [0, 0, 0],
						"0.5833": [0, 0, 5],
						"0.6667": [0, 0, 0],
						"0.75": [0, 0, -5],
						"0.8333": [0, 0, 0],
						"0.9167": [0, 0, 5],
						"1.0": [0, 0, 0],
						"1.0833": [0, 0, -5],
						"1.1667": [0, 0, 0],
						"1.25": [0, 0, 5],
						"1.3333": [0, 0, 0],
						"1.4167": [0, 0, -5],
						"1.5": [0, 0, 0]
					}
				},
				"fang_right": {
					"rotation": {
						"0.0": [0, 0, 0],
						"0.0833": [0, 0, -5],
						"0.1667": [0, 0, 0],
						"0.25": [0, 0, 5],
						"0.3333": [0, 0, 0],
						"0.4167": [0, 0, -5],
						"0.5": [0, 0, 0],
						"0.5833": [0, 0, -5],
						"0.6667": [0, 0, 0],
						"0.75": [0, 0, 5],
						"0.8333": [0, 0, 0],
						"0.9167": [0, 0, -5],
						"1.0": [0, 0, 0],
						"1.0833": [0, 0, 5],
						"1.1667": [0, 0, 0],
						"1.25": [0, 0, -5],
						"1.3333": [0, 0, 0],
						"1.4167": [0, 0, 5],
						"1.5": [0, 0, 0]
					}
				}
			}
		},
		"animation.joltik.blink1": {
			"animation_length": 0.16667,
			"bones": {
				"eyelid_right": {
					"position": {
						"0.0": [0, 0, -0.1],
						"0.125": [0, 0, -0.1],
						"0.1667": [0, 0, 0]
					}
				},
				"eyelid_left": {
					"position": {
						"0.0": [0, 0, -0.1],
						"0.125": [0, 0, -0.1],
						"0.1667": [0, 0, 0]
					}
				}
			}
		},
		"animation.joltik.blink2": {
			"animation_length": 0.16667,
			"bones": {
				"upper_eyelid_right": {
					"position": {
						"0.0": [0, 0, -0.1],
						"0.125": [0, 0, -0.1],
						"0.1667": [0, 0, 0]
					}
				},
				"upper_eyelid_left": {
					"position": {
						"0.0": [0, 0, -0.1],
						"0.125": [0, 0, -0.1],
						"0.1667": [0, 0, 0]
					}
				}
			}
		}
	}
}