{
	"format_version": "1.8.0",
	"animations": {
		"animation.treecko.ground_idle": {
			"loop": true,
			"bones": {
				"torso": {
					"rotation": [2.5, 0, 0]
				},
				"head": {
					"rotation": [-2.5, 0, 0]
				},
				"tail": {
					"rotation": [-12.5, 0, 0]
				},
				"tail2": {
					"rotation": [20, 0, 0]
				},
				"arm_left": {
					"rotation": [0, 0, 40]
				},
				"arm_left2": {
					"rotation": [0, 35, 0]
				},
				"hand_left": {
					"rotation": [0, 0, 17.5]
				},
				"finger_left": {
					"rotation": [6.24605, 19.03771, 18.54835]
				},
				"finger_left2": {
					"rotation": [0, 0, 40]
				},
				"finger_left3": {
					"rotation": [-9.54013, -17.66046, 28.9854]
				},
				"finger_left4": {
					"rotation": [0, 0, 25]
				},
				"finger_left5": {
					"rotation": [0, 0, 15]
				},
				"finger_left6": {
					"rotation": [0, 0, 20]
				},
				"arm_right": {
					"rotation": [0, 0, -40]
				},
				"arm_right2": {
					"rotation": [0, -35, 0]
				},
				"hand_right": {
					"rotation": [0, 0, -17.5]
				},
				"finger_right3": {
					"rotation": [-9.54013, 17.66046, -28.9854]
				},
				"finger_right4": {
					"rotation": [0, 0, -25]
				},
				"finger_right5": {
					"rotation": [0, 0, -15]
				},
				"finger_right6": {
					"rotation": [0, 0, -20]
				},
				"leg_left": {
					"rotation": [0, -5, 0]
				},
				"leg_right": {
					"rotation": [0, 5, 0]
				}
			}
		},
		"animation.treecko.blink": {
			"animation_length": 0.16667,
			"bones": {
				"eyelid_left": {
					"position": {
						"0.0": [0.1, 0, -0.1],
						"0.125": [0.1, 0, -0.1],
						"0.1667": [0, 0, 0]
					}
				},
				"eyelid_right": {
					"position": {
						"0.0": [-0.1, 0, -0.1],
						"0.125": [-0.1, 0, -0.1],
						"0.1667": [0, 0, 0]
					}
				}
			}
		},
		"animation.treecko.cry": {
			"animation_length": 1.5,
			"bones": {
				"neck": {
					"rotation": {
						"0.0": [0, 0, 0],
						"0.25": [10, 0, 0],
						"1.25": [10, 0, 0],
						"1.5": [0, 0, 0]
					}
				},
				"head": {
					"rotation": {
						"0.0": [0, 0, 0],
						"0.25": [-15, 0, 0],
						"1.25": [-15, 0, 0],
						"1.5": [0, 0, 0]
					},
					"position": [0, 0, 0]
				},
				"jaw": {
					"rotation": {
						"0.0": [0, 0, 0],
						"0.25": [25, 0, 0],
						"1.25": [25, 0, 0],
						"1.5": [0, 0, 0]
					}
				}
			}
		}
	}
}