{
	"format_version": "1.8.0",
	"animations": {
		"animation.nidoqueen.ground_idle": {
			"loop": true,
			"bones": {
				"body": {
					"position": [0, "0 - (0/1) + math.abs(math.sin(((query.anim_time) - (1/1)) * 90 * 1) * (0/1))", 0]
				},
				"torso": {
					"rotation": [0, "0 - math.sin(((query.anim_time) - (0.25/1)) * 90 * 1) * 2", 0]
				},
				"head": {
					"rotation": ["0 - (-2 * 1.5)", "math.sin(((query.anim_time) - (0.5/1)) * 90 * 1) * (2 * 1.5)", 0],
					"position": [0, 0, "0 - (0 / 10)"]
				},
				"arm_left": {
					"rotation": [10, "0 - math.sin(((query.anim_time) - (0.5/1)) * 90 * 1) * 4", 0]
				},
				"arm_left2": {
					"rotation": [0, "math.clamp(math.sin(((query.anim_time) + (0.75/1)) * 90 * 1) * 4, 0, 4)", 60]
				},
				"arm_right": {
					"rotation": [10, "0 - math.sin(((query.anim_time) - (0.5/1)) * 90 * 1) * 4", 0]
				},
				"arm_right2": {
					"rotation": [0, "0 - math.clamp(math.sin(((query.anim_time) - (0.75/1)) * 90 * 1) * 4, 0, 4)", -60]
				},
				"torso2": {
					"rotation": [0, "0 - math.sin(((query.anim_time) - (0.5/1)) * 90 * 1) * 2", 0]
				},
				"leg_left": {
					"rotation": [
						"0 -math.sin((query.anim_time) * 90 * 1) * 0",
						0,
						"0 - 0 + (math.clamp((math.sin(((query.anim_time - (1.75 / 1))) * 180 * 1) * 1) - math.clamp((math.sin(((query.anim_time - (1.75 / 1))) * 90 * 1) * 2), 0, 1), 0, 1)) * 0"
					],
					"position": [0, "math.clamp(math.sin(((query.anim_time) + (1/1)) * 90 * 1) * 0, 0, 0)", 0]
				},
				"leg_left2": {
					"rotation": ["0 - math.clamp(math.sin(((query.anim_time) - (0.75/1)) * 90 * 1) * 0, -0, 0)", 0, 0]
				},
				"leg_right": {
					"rotation": [
						"math.sin((query.anim_time) * 90 * 1) * 0",
						0,
						"0 - (math.clamp((math.sin(((query.anim_time + (0.25 / 1))) * 180 * 1) * 1) - math.clamp((math.sin(((query.anim_time + (0.25 / 1))) * 90 * 1) * 2), 0, 1), 0, 1)) * 0"
					],
					"position": [0, "math.clamp(math.sin(((query.anim_time) - (1/1)) * 90 * 1) * 0, 0, 0)", 0]
				},
				"leg_right2": {
					"rotation": ["math.clamp(math.sin(((query.anim_time) - (0.75/1)) * 90 * 1) * 0, 0, 0)", 0, 0]
				},
				"foot_left": {
					"rotation": ["0 - math.clamp(math.sin(((query.anim_time) - (0.75/1)) * 90 * 1) * 0, -0, 0)", 0, 0]
				},
				"foot_right": {
					"rotation": ["math.clamp(math.sin(((query.anim_time) - (0.75/1)) * 90 * 1) * 0, 0, 0)", 0, 0]
				},
				"hand_right": {
					"rotation": [0, -60, 0]
				},
				"hand_left": {
					"rotation": [0, 60, 0]
				},
				"tail": {
					"rotation": [-15, "4*(math.sin(q.anim_time*v.21*3)*1)+0*(math.sin(q.anim_time*v.21*0/2)*1)", 0]
				},
				"tail2": {
					"rotation": [5, "6*(math.sin(q.anim_time*v.21*3-v.21)*1)+0*(math.sin(q.anim_time*v.21*0/2-v.21)*1)", 0]
				},
				"tail3": {
					"rotation": [5, "6*(math.sin(q.anim_time*v.21*3-v.21)*1)+0*(math.sin(q.anim_time*v.21*0/2-v.21)*1)", 0]
				}
			}
		},
		"animation.nidoqueen.ground_walk": {
			"loop": true,
			"bones": {
				"body": {
					"position": [0, "0 - (9/13) + math.abs(math.sin(((query.anim_time) - (1/3)) * 90 * 3) * (9/13))", 0]
				},
				"torso": {
					"rotation": [2, "0 - math.sin(((query.anim_time) - (0.25/3)) * 90 * 3) * 2", 0]
				},
				"head": {
					"rotation": ["0 - (-2 * 1.5)", "math.sin(((query.anim_time) - (0.5/3)) * 90 * 3) * (2 * 1.5)", 0],
					"position": [0, 0, "0 - (2 / 10)"]
				},
				"arm_left": {
					"rotation": [10, "0 - math.sin(((query.anim_time) - (0.5/3)) * 90 * 3) * 11", 0]
				},
				"arm_left2": {
					"rotation": [0, "math.clamp(math.sin(((query.anim_time) + (0.75/3)) * 90 * 3) * 11, 0, 11)", 60]
				},
				"arm_right": {
					"rotation": [10, "0 - math.sin(((query.anim_time) - (0.5/3)) * 90 * 3) * 11", 0]
				},
				"arm_right2": {
					"rotation": [0, "0 - math.clamp(math.sin(((query.anim_time) - (0.75/3)) * 90 * 3) * 11, 0, 11)", -60]
				},
				"torso2": {
					"rotation": [2, "0 - math.sin(((query.anim_time) - (0.5/3)) * 90 * 3) * 2", 0]
				},
				"leg_left": {
					"rotation": [
						"0 -math.sin((query.anim_time) * 90 * 3) * 9",
						0,
						"0 - 0 + (math.clamp((math.sin(((query.anim_time - (1.75 / 3))) * 180 * 3) * 1) - math.clamp((math.sin(((query.anim_time - (1.75 / 3))) * 90 * 3) * 2), 0, 1), 0, 1)) * 0"
					],
					"position": [0, "math.clamp(math.sin(((query.anim_time) + (1/3)) * 90 * 3) * 1, 0, 1)", 0]
				},
				"leg_left2": {
					"rotation": ["0 - math.clamp(math.sin(((query.anim_time) - (0.75/3)) * 90 * 3) * 0, -0, 0)", 0, 0]
				},
				"leg_right": {
					"rotation": [
						"math.sin((query.anim_time) * 90 * 3) * 9",
						0,
						"0 - (math.clamp((math.sin(((query.anim_time + (0.25 / 3))) * 180 * 3) * 1) - math.clamp((math.sin(((query.anim_time + (0.25 / 3))) * 90 * 3) * 2), 0, 1), 0, 1)) * 0"
					],
					"position": [0, "math.clamp(math.sin(((query.anim_time) - (1/3)) * 90 * 3) * 1, 0, 1)", 0]
				},
				"leg_right2": {
					"rotation": ["math.clamp(math.sin(((query.anim_time) - (0.75/3)) * 90 * 3) * 0, 0, 0)", 0, 0]
				},
				"foot_left": {
					"rotation": ["0 - math.clamp(math.sin(((query.anim_time) - (0.75/3)) * 90 * 3) * 0, -0, 0)", 0, 0]
				},
				"foot_right": {
					"rotation": ["math.clamp(math.sin(((query.anim_time) - (0.75/3)) * 90 * 3) * 0, 0, 0)", 0, 0]
				},
				"hand_right": {
					"rotation": [0, -65, 0]
				},
				"hand_left": {
					"rotation": [0, 65, 0]
				},
				"tail": {
					"rotation": [-15, "4*(math.sin(q.anim_time*v.79*3)*1)+0*(math.sin(q.anim_time*v.79*1/2)*1)", 0]
				},
				"tail2": {
					"rotation": [5, "6*(math.sin(q.anim_time*v.79*3-v.79)*1)+0*(math.sin(q.anim_time*v.79*1/2-v.79)*1)", 0]
				},
				"tail3": {
					"rotation": [5, "6*(math.sin(q.anim_time*v.79*3-v.79)*1)+0*(math.sin(q.anim_time*v.79*1/2-v.79)*1)", 0]
				}
			}
		},
		"animation.nidoqueen.sleep": {
			"loop": true,
			"bones": {
				"body": {
					"rotation": [70, 0, 0],
					"position": [0, 5.25, 12]
				},
				"torso": {
					"rotation": [7.5, 0, 0]
				},
				"head": {
					"rotation": [-29.22599, 45.63828, 4.50563]
				},
				"eyelid_right": {
					"position": [-0.1, 0, 0]
				},
				"eyelid_left": {
					"position": [0.1, 0, 0]
				},
				"jaw": {
					"rotation": [22.5, 0, 0]
				},
				"ear_right": {
					"rotation": [-3.91887, -32.77242, -16.98258]
				},
				"ear_left": {
					"rotation": [0, 25, 0]
				},
				"arm_right": {
					"rotation": [-10.87673, -51.5587, 15.96577]
				},
				"arm_right2": {
					"rotation": [-0.65245, 2.52805, 4.92866]
				},
				"hand_right": {
					"rotation": [-58.18859, -13.55983, 64.72319]
				},
				"arm_left": {
					"rotation": [-94.76652, 49.51331, -56.90142]
				},
				"arm_left2": {
					"rotation": [20, 15, 5]
				},
				"hand_left": {
					"rotation": [44.89078, 82.93343, 45.10922]
				},
				"tail": {
					"rotation": [-95, 0, 0],
					"position": [0, -2, -3.75]
				},
				"tail2": {
					"rotation": [-23.97027, -24.09293, 6.8817]
				},
				"tail3": {
					"rotation": [10.07673, -9.96156, -0.88045]
				},
				"leg_right": {
					"rotation": [-43.26898, 15.78509, 2.3726],
					"position": [0, 0, 1]
				},
				"foot_right": {
					"rotation": [-22.19157, -3.81024, -9.25249]
				},
				"leg_left": {
					"rotation": [-42.14802, -24.15497, -11.98914],
					"position": [0, 0, 1]
				},
				"foot_left": {
					"rotation": [-22.12165, 4.98093, 8.6822]
				}
			}
		},
		"animation.nidoqueen.blink": {
			"animation_length": 0.16667,
			"bones": {
				"eyelid_right": {
					"position": {
						"0.0": [-0.1, 0, 0],
						"0.125": [-0.1, 0, 0],
						"0.1667": [0, 0, 0]
					}
				},
				"eyelid_left": {
					"position": {
						"0.0": [0.1, 0, 0],
						"0.125": [0.1, 0, 0],
						"0.1667": [0, 0, 0]
					}
				}
			}
		}
	}
}