{
	"format_version": "1.8.0",
	"animations": {
		"animation.wooper.ground_idle": {
			"loop": true,
			"bones": {
				"tail": {
					"rotation": [-15, 0, 0]
				},
				"tail2": {
					"rotation": [10, 0, 0]
				}
			}
		},
		"animation.wooper.water_idle": {
			"loop": true,
			"bones": {
				"body": {
					"rotation": [15, 0, 0]
				},
				"head": {
					"rotation": [-10, 0, 0]
				},
				"leftfoot": {
					"rotation": [15, 0, 0]
				},
				"rightfoot": {
					"rotation": [15, 0, 0]
				},
				"tail": {
					"rotation": [-30, 0, 0]
				},
				"tail2": {
					"rotation": [7.5, 0, 0]
				}
			}
		},
		"animation.wooper.water_swim": {
			"loop": true,
			"bones": {
				"body": {
					"rotation": [60, 0, 0]
				},
				"head": {
					"rotation": [-45, 0, 0]
				},
				"leftfoot": {
					"rotation": [30, 0, 0]
				},
				"rightfoot": {
					"rotation": [30, 0, 0]
				},
				"tail": {
					"rotation": [-60, 0, 0]
				},
				"tail2": {
					"rotation": [7.5, 0, 0]
				},
				"pointythingysleft": {
					"rotation": [0, -15, 0]
				},
				"pointythingysright": {
					"rotation": [0, 15, 0]
				}
			}
		}
	}
}