{
	"format_version": "1.8.0",
	"animations": {
		"mouth": {
			"loop": true,
			"animation_length": 2,
			"bones": {
				"mouth": {
					"position": {
						"0.0": [0, 0, 0],
						"0.25": [0, 6, 0],
						"1.1667": [0, 6, 0],
						"1.4167": [0, 0, 0]
					}
				},
				"mouth2": {
					"position": {
						"0.25": [0, 0, 0],
						"0.4167": [0, 3, 0],
						"1.0": [0, 3, 0],
						"1.1667": [0, 0, 0]
					}
				},
				"jaw": {
					"position": [0, 0, 0]
				}
			}
		}
	}
}